192.168.212.50                                                                                                                                                                      
192.168.212.51                                                                                                                                                                      
192.168.212.52                                                                                                                                                                      
192.168.212.53                                                                                                                                                                      
192.168.212.54                                                                                                                                                                      
192.168.212.55                                                                                                                                                                      
192.168.212.56                                                                                                                                                                      
192.168.212.57                                                                                                                                                                      
192.168.212.59                                                                                                                                                                      
192.168.212.60                                                                                                                                                                      
192.168.212.61                                                                                                                                                                      
192.168.212.62                                                                                                                                                                      
192.168.212.63                                                                                                                                                                      
192.168.212.64                                                                                                                                                                      
192.168.212.65                                                                                                                                                                      
192.168.212.66                                                                                                                                                                      
192.168.212.67                                                                                                                                                                      
192.168.212.68                                                                                                                                                                      
192.168.212.69                                                                                                                                                                      
192.168.212.70                                                                                                                                                                      
192.168.212.71                                                                                                                                                                      
192.168.212.72                                                                                                                                                                      
192.168.212.73                                                                                                                                                                      
192.168.212.74                                                                                                                                                                      
192.168.212.75                                                                                                                                                                      
192.168.212.76                                                                                                                                                                      
192.168.212.77                                                                                                                                                                      
192.168.212.78                                                                                                                                                                      
192.168.212.79                                                                                                                                                                      
192.168.212.80                                                                                                                                                                      
192.168.212.81                                                                                                                                                                      
192.168.212.82                                                                                                                                                                      
192.168.212.83                                                                                                                                                                      
192.168.212.84                                                                                                                                                                      
192.168.212.85                                                                                                                                                                      
192.168.212.86                                                                                                                                                                      
192.168.212.87                                                                                                                                                                      
192.168.212.88                                                                                                                                                                      
192.168.212.89                                                                                                                                                                      
192.168.212.90                                                                                                                                                                      
192.168.212.92                                                                                                                                                                      
192.168.212.94                                                                                                                                                                      
192.168.212.95                                                                                                                                                                      
192.168.212.97                                                                                                                                                                      
192.168.212.98                                                                                                                                                                      
192.168.212.99                                                                                                                                                                      
192.168.212.100                                                                                                                                                                     
192.168.212.101                                                                                                                                                                     
192.168.212.102                                                                                                                                                                     
192.168.212.103                                                                                                                                                                     
192.168.212.104                                                                                                                                                                     
192.168.212.105                                                                                                                                                                     
192.168.212.106                                                                                                                                                                     
192.168.212.107                                                                                                                                                                     
192.168.212.108                                                                                                                                                                     
192.168.212.109                                                                                                                                                                     
192.168.212.110                                                                                                                                                                     
192.168.212.111                                                                                                                                                                     
192.168.212.112                                                                                                                                                                     
192.168.212.114                                                                                                                                                                     
192.168.212.115                                                                                                                                                                     
192.168.212.116                                                                                                                                                                     
192.168.212.117                                                                                                                                                                     
192.168.212.118                                                                                                                                                                     
192.168.212.119                                                                                                                                                                     
192.168.212.120                                                                                                                                                                     
192.168.212.121                                                                                                                                                                     
192.168.212.122                                                                                                                                                                     
192.168.212.123                                                                                                                                                                     
192.168.212.124                                                                                                                                                                     
192.168.212.125                                                                                                                                                                     
192.168.212.126                                                                                                                                                                     
192.168.212.127                                                                                                                                                                     
192.168.212.128                                                                                                                                                                     
192.168.212.129                                                                                                                                                                     
192.168.212.130                                                                                                                                                                     
192.168.212.131                                                                                                                                                                     
192.168.212.132                                                                                                                                                                     
192.168.212.133                                                                                                                                                                     
192.168.212.134                                                                                                                                                                     
192.168.212.135                                                                                                                                                                     
192.168.212.136                                                                                                                                                                     
192.168.212.137                                                                                                                                                                     
192.168.212.138                                                                                                                                                                     
192.168.212.139                                                                                                                                                                     
192.168.212.140                                                                                                                                                                     
192.168.212.141                                                                                                                                                                     
192.168.212.142                                                                                                                                                                     
192.168.212.143                                                                                                                                                                     
192.168.212.145                                                                                                                                                                     
192.168.212.146                                                                                                                                                                     
192.168.212.147                                                                                                                                                                     
192.168.212.148                                                                                                                                                                     
192.168.212.149                                                                                                                                                                     
192.168.212.150                                                                                                                                                                     
192.168.212.151                                                                                                                                                                     
192.168.212.152                                                                                                                                                                     
192.168.212.171                                                                                                                                                                     
192.168.212.172                                                                                                                                                                     
192.168.212.193                                                                                                                                                                     
192.168.212.194                                                                                                                                                                     
192.168.212.196                                                                                                                                                                     
192.168.212.197                                                                                                                                                                     
192.168.212.211                                                                                                                                                                     
192.168.212.212                                                                                                                                                                     
192.168.212.232                                                                                                                                                                     
192.168.212.233                                                                                                                                                                     
192.168.212.234                                                                                                                                                                     
192.168.212.235                                                                                                                                                                     
192.168.212.236                                                                                                                                                                     
192.168.212.237                                                                                                                                                                     
192.168.212.239                                                                                                                                                                     
192.168.212.240                                                                                                                                                                     
192.168.212.251                                                                                                                                                                     
192.168.212.252                                                                                                                                                                     
