k
show fdb mac_address 1C-AF-F7-C8-7A-64
Command: show fdb mac_address 1C-AF-F7-C8-7A-64

VID  VLAN Name                        MAC Address       Port Type  
---- -------------------------------- ----------------- ---- ---------------
1141 PPPoE                            1C-AF-F7-C8-7A-64 13   Dynamic

Total Entries  : 1

DES-3200-28:5#
show fdb mac_address 1C-AF-F7-C8-7A-64
Command: show fdb mac_address 1C-AF-F7-C8-7A-64

VID  VLAN Name                        MAC Address       Port Type  
---- -------------------------------- ----------------- ---- ---------------

Total Entries  : 0

DES-3200-28:5#
show fdb mac_address 1C-AF-F7-C8-7A-64
Command: show fdb mac_address 1C-AF-F7-C8-7A-64

VID  VLAN Name                        MAC Address       Port Type  
---- -------------------------------- ----------------- ---- ---------------
1141 PPPoE                            1C-AF-F7-C8-7A-64 13   Dynamic

Total Entries  : 1

DES-3200-28:5#
show fdb mac_address 1C-AF-F7-C8-7A-64
Command: show fdb mac_address 1C-AF-F7-C8-7A-64

VID  VLAN Name                        MAC Address       Port Type  
---- -------------------------------- ----------------- ---- ---------------

Total Entries  : 0

DES-3200-28:5#
show fdb mac_address 1C-AF-F7-C8-7A-64
Command: show fdb mac_address 1C-AF-F7-C8-7A-64

VID  VLAN Name                        MAC Address       Port Type  
---- -------------------------------- ----------------- ---- ---------------
1141 PPPoE                            1C-AF-F7-C8-7A-64 13   Dynamic

Total Entries  : 1

DES-3200-28:5#
show fdb mac_address 1C-AF-F7-C8-7A-64
Command: show fdb mac_address 1C-AF-F7-C8-7A-64

VID  VLAN Name                        MAC Address       Port Type  
---- -------------------------------- ----------------- ---- ---------------

Total Entries  : 0

DES-3200-28:5#
show fdb mac_address 1C-AF-F7-C8-7A-64
Command: show fdb mac_address 1C-AF-F7-C8-7A-64

VID  VLAN Name                        MAC Address       Port Type  
---- -------------------------------- ----------------- ---- ---------------
1141 PPPoE                            1C-AF-F7-C8-7A-64 13   Dynamic

Total Entries  : 1

DES-3200-28:5#
show fdb mac_address 1C-AF-F7-C8-7A-64
Command: show fdb mac_address 1C-AF-F7-C8-7A-64

VID  VLAN Name                        MAC Address       Port Type  
---- -------------------------------- ----------------- ---- ---------------

Total Entries  : 0

DES-3200-28:5#
show fdb mac_address 1C-AF-F7-C8-7A-64
Command: show fdb mac_address 1C-AF-F7-C8-7A-64

VID  VLAN Name                        MAC Address       Port Type  
---- -------------------------------- ----------------- ---- ---------------
1141 PPPoE                            1C-AF-F7-C8-7A-64 13   Dynamic

Total Entries  : 1

DES-3200-28:5#
show fdb mac_address 1C-AF-F7-C8-7A-64
Command: show fdb mac_address 1C-AF-F7-C8-7A-64

VID  VLAN Name                        MAC Address       Port Type  
---- -------------------------------- ----------------- ---- ---------------

Total Entries  : 0

DES-3200-28:5#
show fdb mac_address 1C-AF-F7-C8-7A-64
Command: show fdb mac_address 1C-AF-F7-C8-7A-64

VID  VLAN Name                        MAC Address       Port Type  
---- -------------------------------- ----------------- ---- ---------------
1141 PPPoE                            1C-AF-F7-C8-7A-64 13   Dynamic

Total Entries  : 1

DES-3200-28:5#
show fdb mac_address 1C-AF-F7-C8-7A-64
Command: show fdb mac_address 1C-AF-F7-C8-7A-64

VID  VLAN Name                        MAC Address       Port Type  
---- -------------------------------- ----------------- ---- ---------------

Total Entries  : 0

DES-3200-28:5#
show fdb mac_address 1C-75-08-FB-91-52
Command: show fdb mac_address 1C-75-08-FB-91-52

VID  VLAN Name                        MAC Address       Port Type  
---- -------------------------------- ----------------- ---- ---------------
1100 1100                             1C-75-08-FB-91-52 19   Dynamic

Total Entries  : 1

DES-3200-28:5#
show fdb mac_address 1C-75-08-FB-91-52
Command: show fdb mac_address 1C-75-08-FB-91-52

VID  VLAN Name                        MAC Address       Port Type  
---- -------------------------------- ----------------- ---- ---------------
1100 PPPoE_Zeleno9                    1C-75-08-FB-91-52 25   Dynamic

Total Entries  : 1

DES-3200-28:5#
show fdb mac_address 1C-75-08-FB-91-52
Command: show fdb mac_address 1C-75-08-FB-91-52

VID  VLAN Name                        MAC Address       Port Type  
---- -------------------------------- ----------------- ---- ---------------
1100 1100                             1C-75-08-FB-91-52 19   Dynamic

Total Entries  : 1

DES-3200-28:5#
show fdb mac_address 1C-75-08-FB-91-52
Command: show fdb mac_address 1C-75-08-FB-91-52

VID  VLAN Name                        MAC Address       Port Type  
---- -------------------------------- ----------------- ---- ---------------
1100 PPPoE_Zeleno9                    1C-75-08-FB-91-52 25   Dynamic

Total Entries  : 1

DES-3200-28:5#
show fdb mac_address 60-EB-69-6D-7E-EB
Command: show fdb mac_address 60-EB-69-6D-7E-EB

VID  VLAN Name                        MAC Address       Port Type  
---- -------------------------------- ----------------- ---- ---------------
1158 PPPoE                            60-EB-69-6D-7E-EB 14   Dynamic

Total Entries  : 1

DES-3200-28:5#
show fdb mac_address 00-22-3F-D4-FE-9B
Command: show fdb mac_address 00-22-3F-D4-FE-9B

VID  VLAN Name                        MAC Address       Port Type  
---- -------------------------------- ----------------- ---- ---------------
1168 PPPoE                            00-22-3F-D4-FE-9B  2   Dynamic

Total Entries  : 1

DES-3200-28:5#
show fdb mac_address 00-1E-C2-11-FF-C9
Command: show fdb mac_address 00-1E-C2-11-FF-C9

VID  VLAN Name                        MAC Address       Port Type  
---- -------------------------------- ----------------- ---- ---------------

Total Entries  : 0

DES-3200-28:5#
show fdb mac_address 00-1E-C2-11-FF-C9
Command: show fdb mac_address 00-1E-C2-11-FF-C9

VID  VLAN Name                        MAC Address       Port Type  
---- -------------------------------- ----------------- ---- ---------------
1142 PPPoE                            00-1E-C2-11-FF-C9 19   Dynamic

Total Entries  : 1

DES-3200-28:5#
show fdb mac_address 90-E6-BA-F5-F1-FD
Command: show fdb mac_address 90-E6-BA-F5-F1-FD

VID  VLAN Name                        MAC Address       Port Type  
---- -------------------------------- ----------------- ---- ---------------
1146 PPPOE                            90-E6-BA-F5-F1-FD 17   Dynamic

Total Entries  : 1

DES-3200-28:5#
show fdb mac_address 90-E6-BA-F5-F1-FD
Command: show fdb mac_address 90-E6-BA-F5-F1-FD

VID  VLAN Name                        MAC Address       Port Type  
---- -------------------------------- ----------------- ---- ---------------

Total Entries  : 0

DES-3200-28:5#
show fdb mac_address A0-21-B7-AB-5D-8D
Command: show fdb mac_address A0-21-B7-AB-5D-8D

VID  VLAN Name                        MAC Address       Port Type  
---- -------------------------------- ----------------- ---- ---------------
1132 1132                             A0-21-B7-AB-5D-8D  7   Dynamic

Total Entries  : 1

DES-3200-28:5#
show fdb mac_address A0-21-B7-AB-5D-8D
Command: show fdb mac_address A0-21-B7-AB-5D-8D

VID  VLAN Name                        MAC Address       Port Type  
---- -------------------------------- ----------------- ---- ---------------

Total Entries  : 0

DES-3200-28:5#
show fdb mac_address A0-21-B7-AB-5D-8D
Command: show fdb mac_address A0-21-B7-AB-5D-8D

VID  VLAN Name                        MAC Address       Port Type  
---- -------------------------------- ----------------- ---- ---------------
1132 1132                             A0-21-B7-AB-5D-8D  7   Dynamic

Total Entries  : 1

DES-3200-28:5#
show fdb mac_address A0-21-B7-AB-5D-8D
Command: show fdb mac_address A0-21-B7-AB-5D-8D

VID  VLAN Name                        MAC Address       Port Type  
---- -------------------------------- ----------------- ---- ---------------

Total Entries  : 0

DES-3200-28:5#
show fdb mac_address A0-21-B7-AB-5D-8D
Command: show fdb mac_address A0-21-B7-AB-5D-8D

VID  VLAN Name                        MAC Address       Port Type  
---- -------------------------------- ----------------- ---- ---------------
1132 1132                             A0-21-B7-AB-5D-8D  7   Dynamic

Total Entries  : 1

DES-3200-28:5#
show fdb mac_address A0-21-B7-AB-5D-8D
Command: show fdb mac_address A0-21-B7-AB-5D-8D

VID  VLAN Name                        MAC Address       Port Type  
---- -------------------------------- ----------------- ---- ---------------

Total Entries  : 0

DES-3200-28:5#
show fdb mac_address A0-21-B7-AB-5D-8D
Command: show fdb mac_address A0-21-B7-AB-5D-8D

VID  VLAN Name                        MAC Address       Port Type  
---- -------------------------------- ----------------- ---- ---------------
1132 1132                             A0-21-B7-AB-5D-8D  7   Dynamic

Total Entries  : 1

DES-3200-28:5#
show fdb mac_address A0-21-B7-AB-5D-8D
Command: show fdb mac_address A0-21-B7-AB-5D-8D

VID  VLAN Name                        MAC Address       Port Type  
---- -------------------------------- ----------------- ---- ---------------

Total Entries  : 0

DES-3200-28:5#
show fdb mac_address A0-21-B7-AB-5D-8D
Command: show fdb mac_address A0-21-B7-AB-5D-8D

VID  VLAN Name                        MAC Address       Port Type  
---- -------------------------------- ----------------- ---- ---------------
1132 1132                             A0-21-B7-AB-5D-8D  7   Dynamic

Total Entries  : 1

DES-3200-28:5#
show fdb mac_address A0-21-B7-AB-5D-8D
Command: show fdb mac_address A0-21-B7-AB-5D-8D

VID  VLAN Name                        MAC Address       Port Type  
---- -------------------------------- ----------------- ---- ---------------

Total Entries  : 0

DES-3200-28:5#
show fdb mac_address 00-1E-8C-E0-D1-27
Command: show fdb mac_address 00-1E-8C-E0-D1-27

VID  VLAN Name                        MAC Address       Port Type  
---- -------------------------------- ----------------- ---- ---------------

Total Entries  : 0

DES-3200-28:5#
show fdb mac_address 00-1E-8C-E0-D1-27
Command: show fdb mac_address 00-1E-8C-E0-D1-27

VID  VLAN Name                        MAC Address       Port Type  
---- -------------------------------- ----------------- ---- ---------------
1131 PPPoE_Yamskaya12_1               00-1E-8C-E0-D1-27 26   Dynamic

Total Entries  : 1

DES-3200-28:5#
show fdb mac_address 14-DA-E9-7A-40-FC
Command: show fdb mac_address 14-DA-E9-7A-40-FC

VID  VLAN Name                        MAC Address       Port Type  
---- -------------------------------- ----------------- ---- ---------------

Total Entries  : 0

DES-3200-28:5#
show fdb mac_address 14-DA-E9-7A-40-FC
Command: show fdb mac_address 14-DA-E9-7A-40-FC

VID  VLAN Name                        MAC Address       Port Type  
---- -------------------------------- ----------------- ---- ---------------
1129 1129                             14-DA-E9-7A-40-FC 22   Dynamic

Total Entries  : 1

DES-3200-28:5#
show fdb mac_address 00-16-17-96-91-CF
Command: show fdb mac_address 00-16-17-96-91-CF

VID  VLAN Name                        MAC Address       Port Type  
---- -------------------------------- ----------------- ---- ---------------
1122 PPPOE_Obezdnaya_6_1              00-16-17-96-91-CF  2   Dynamic

Total Entries  : 1

DES-3200-28:5#
show fdb mac_address 14-D6-4D-35-41-29
Command: show fdb mac_address 14-D6-4D-35-41-29

VID  VLAN Name                        MAC Address       Port Type  
---- -------------------------------- ----------------- ---- ---------------
1194 PPPoE                            14-D6-4D-35-41-29 11   Dynamic

Total Entries  : 1

DES-3200-28:5#
show fdb mac_address 14-D6-4D-35-41-29
Command: show fdb mac_address 14-D6-4D-35-41-29

VID  VLAN Name                        MAC Address       Port Type  
---- -------------------------------- ----------------- ---- ---------------

Total Entries  : 0

DES-3200-28:5#
show fdb mac_address 1C-7E-E5-90-32-89
Command: show fdb mac_address 1C-7E-E5-90-32-89

VID  VLAN Name                        MAC Address       Port Type  
---- -------------------------------- ----------------- ---- ---------------
1111 PPPOE_Obezdnaya_10_4             1C-7E-E5-90-32-89 15   Dynamic

Total Entries  : 1

DES-3200-28:5#
show fdb mac_address 20-CF-30-4C-7E-10
Command: show fdb mac_address 20-CF-30-4C-7E-10

VID  VLAN Name                        MAC Address       Port Type  
---- -------------------------------- ----------------- ---- ---------------
1128 PPPOE_Obezdnaya_8_4              20-CF-30-4C-7E-10  4   Dynamic

Total Entries  : 1

DES-3200-28:5#
show fdb mac_address 6C-F0-49-D2-29-FE
Command: show fdb mac_address 6C-F0-49-D2-29-FE

VID  VLAN Name                        MAC Address       Port Type  
---- -------------------------------- ----------------- ---- ---------------
1103 PPPOE_Ledovaya_19_1              6C-F0-49-D2-29-FE  1   Dynamic

Total Entries  : 1

DES-3200-28:5#
