sh arp | in 
% Incomplete command.

7301_Alpha#
sh arp | in 192.168.216.30
Internet  192.168.216.30        108   1caf.f785.508e  ARPA   GigabitEthernet0/1.750
7301_Alpha#
sh arp | in 192.168.216.8
Internet  192.168.216.8          61   1caf.f785.59f6  ARPA   GigabitEthernet0/1.750
Internet  192.168.216.81         14   1caf.f785.606e  ARPA   GigabitEthernet0/1.750
Internet  192.168.216.82         79   1caf.f785.53a4  ARPA   GigabitEthernet0/1.750
7301_Alpha#
sh arp | in 192.168.216.8
Internet  192.168.216.8          62   1caf.f785.59f6  ARPA   GigabitEthernet0/1.750
Internet  192.168.216.81         15   1caf.f785.606e  ARPA   GigabitEthernet0/1.750
Internet  192.168.216.82         80   1caf.f785.53a4  ARPA   GigabitEthernet0/1.750
7301_Alpha#
sh arp | in 192.168.216.8
Internet  192.168.216.8         100   1caf.f785.59f6  ARPA   GigabitEthernet0/1.750
Internet  192.168.216.81         53   1caf.f785.606e  ARPA   GigabitEthernet0/1.750
Internet  192.168.216.82        118   1caf.f785.53a4  ARPA   GigabitEthernet0/1.750
7301_Alpha#
sh arp | in 192.168.216.30
Internet  192.168.216.30        234   1caf.f785.508e  ARPA   GigabitEthernet0/1.750
7301_Alpha#
