192.168.212.32, DES-3200-28/C1, 28, 4, 4.34B013, Chehova_19_abonent, , ,R3DZ1C8000395, 90-94-E4-24-2D-20
192.168.212.50, DES-3200-28, 28, 5, 1.82.B006, Sadovaya, N15, Sl,PVI41A4010668, 1C-BD-B9-47-30-20
192.168.212.51, DES-3200-28, 28, 4, 1.83.B005, Ryabinovaya, N13, Sl,PVI41A4010667, 1C-BD-B9-47-30-A0
192.168.212.52, DES-3200-28, 28, 7, 1.82.B006, Studencheskaya, N19, P1,PVI41AB003049, 5C-D9-98-FB-49-40
192.168.212.53, DES-3200-28, 28, 12, 1.81.B003, Ledovaya, N7, P1,PVI41A4010646, 00-26-5A-90-F8-C0
192.168.212.54, DES-3200-28, 28, 18, 1.80.B009, Yamskaya, N20, P1,PVZ81B3002162, 14-D6-4D-3F-F4-20
192.168.212.55, DES-3200-28, 28, 12, 1.83.B005, Ledovaya, N3, P1,PVZ81B3002161, 14-D6-4D-40-10-C0
192.168.212.56, DES-3200-28, 28, 23, 1.81.B003, Ledovaya, N5, P1,PVZ81B3002164, 14-D6-4D-40-37-C0
192.168.212.57, DES-3200-28, 28, 9, 1.80.B009, Ledovaya, N9, P1,PVZ81B3002163, 14-D6-4D-40-10-80
192.168.212.58, DES-3200-26, 26, 2, 1.83.B005, Komsomolskaya, N31, P1,PVHQ1A5012705, 1C-BD-B9-6C-2B-C0
192.168.212.59, DES-3200-28, 28, 24, 1.80.B006, Yamskaya, N10, P3,PVI41A4010666, 00-26-5A-90-FA-A0
192.168.212.60, DES-3200-28, 28, 24, 1.80.B009, Zelenodolskaya, N9, P1,PVI41A5005550, 1C-BD-B9-66-61-80
192.168.212.61, DES-3200-28, 28, 25, 1.81.B003, Obezdnaya, N10, P11,PVI41A5005547, 1C-BD-B9-66-61-E0
192.168.212.62, DES-3200-28, 28, 11, 1.83.B005, Gagarina, N130, P5,PVI41A5005546, 1C-BD-B9-66-3B-20
192.168.212.63, DES-3200-28, 28, 19, 1.81.B003, Obezdnaya, N6, P9,PVI41A5005549, 1C-BD-B9-66-E1-20
192.168.212.64, DES-3200-28, 28, 20, 1.80.B006, Zelenodolskaya, N5, P1,PVI41A5005548, 1C-BD-B9-66-3A-60
192.168.212.65, DES-3200-28, 28, 21, 1.81.B003, Obezdnaya, N8, P1,PVI41A5005560, 1C-BD-B9-66-65-20
192.168.212.66, DES-3200-28, 28, 20, 1.83.B005, Ledovaya, N19, P5,PVI41A5005559, 1C-BD-B9-66-3B-E0
192.168.212.67, DES-3200-28, 28, 21, 1.81.B003, Ledovaya, N19, P2,PVI41A5005558, 1C-BD-B9-66-3B-80
192.168.212.68, DES-3200-28, 28, 22, 1.80.B006, Yamskaya, N10, P2,PVI41A5005557, 1C-BD-B9-66-DF-80
192.168.212.69, DES-3200-28, 28, 23, 1.80.B009, Obezdnaya, N6, P3,PVI41A5005556, 1C-BD-B9-66-3B-A0
192.168.212.70, DES-3200-28, 28, 20, 1.81.B003, Yamskaya, N3.1, P2,PVI41A5006045, 1C-BD-B9-65-94-60
192.168.212.71, DES-3200-28, 28, 25, 1.81.B003, Obezdnaya, N6, P7,PVI41A5006044, 1C-BD-B9-65-93-60
192.168.212.72, DES-3200-28, 28, 20, 1.80.B006, Zelenodolskaya, N7, P2,PVI41A5006041, 1C-BD-B9-65-79-20
192.168.212.73, DES-3200-28, 28, 9, 1.80.B009, Lermontova, N19A, P3,PVI41A5006042, 1C-BD-B9-65-93-80
192.168.212.74, DES-3200-28, 28, 19, 1.80.B006, Obezdnaya, N8, P11,PVI41A5006043, 1C-BD-B9-65-79-40
192.168.212.75, DES-3200-28, 28, 19, 1.80.B006, Ryabinovaya, N13B, P1,PVI41A5006081, 1C-BD-B9-65-7F-A0
192.168.212.76, DES-3200-28, 28, 14, 1.80.B009, Yamskaya, N1.1, P2,PVI41A5006082, 1C-BD-B9-65-95-60
192.168.212.77, DES-3200-28, 28, 20, 1.81.B003, Obezdnaya, N8, P4,PVI41A5006083, 1C-BD-B9-65-9F-80
192.168.212.78, DES-3200-28, 28, 22, 1.83.B005, Obezdnaya, N8, P8,PVI41A5006084, 1C-BD-B9-65-7F-60
192.168.212.79, DES-3200-28, 28, 4, 1.81.B003, Gagarina, N130, P2,PVI41A5006085, 1C-BD-B9-65-7E-60
192.168.212.80, DES-3200-28, 28, 19, 1.80.B006, Kirova, N35, P2,PVI41A4010631, 1C-BD-B9-47-06-C0
192.168.212.81, DES-3200-28, 28, 15, 1.83.B005, Yamskaya, N4, P2,PVI41A4010632, 1C-BD-B9-47-31-C0
