192.168.212.32, , , 12, , , , 
192.168.212.50, , , 3, , , , 
192.168.212.51, , , 5, , , , 
192.168.212.52, , , 8, , , , 
192.168.212.53, , , 13, , , , 
192.168.212.54, , , 19, , , , 
192.168.212.55, , , 13, , , , 
192.168.212.56, , , 22, , , , 
192.168.212.57, , , 10, , , , 
192.168.212.58, , , 2, , , , 
192.168.212.59, , , 23, , , , 
192.168.212.60, , , 22, , , , 
192.168.212.61, , , 24, , , , 
192.168.212.62, , , 12, , , , 
192.168.212.63, , , 19, , , , 
192.168.212.64, , , 21, , , , 
192.168.212.65, , , 20, , , , 
192.168.212.66, , , 18, , , , 
192.168.212.67, , , 19, , , , 
192.168.212.68, , , 21, , , , 
192.168.212.69, , , 23, , , , 
192.168.212.70, , , 17, , , , 
192.168.212.71, , , 25, , , , 
192.168.212.72, , , 20, , , , 
192.168.212.73, , , 8, , , , 
192.168.212.74, , , 19, , , , 
192.168.212.75, , , 22, , , , 
192.168.212.76, , , 14, , , , 
192.168.212.77, , , 22, , , , 
192.168.212.78, , , 19, , , , 
192.168.212.79, , , 4, , , , 
192.168.212.80, , , 17, , , , 
192.168.212.81, , , 21, , , , 
192.168.212.82, , , 5, , , , 
192.168.212.83, , , 22, , , , 
192.168.212.84, , , 22, , , , 
192.168.212.85, , , 24, , , , 
192.168.212.86, , , 18, , , , 
192.168.212.87, , , 20, , , , 
192.168.212.88, , , 17, , , , 
192.168.212.89, , , 24, , , , 
192.168.212.90, , , 21, , , , 
192.168.212.91, , , 20, , , , 
192.168.212.92, , , 0, , , , 
192.168.212.93, , , 9, , , , 
192.168.212.95, , , 12, , , , 
192.168.212.96, , , 20, , , , 
192.168.212.97, , , 18, , , , 
192.168.212.98, , , 17, , , , 
192.168.212.99, , , 20, , , , 
192.168.212.100, , , 11, , , , 
192.168.212.101, , , 19, , , , 
192.168.212.102, , , 2, , , , 
192.168.212.103, , , 19, , , , 
192.168.212.104, , , 20, , , , 
192.168.212.106, , , 30, , , , 
192.168.212.107, , , 14, , , , 
192.168.212.108, , , 19, , , , 
192.168.212.109, , , 22, , , , 
192.168.212.110, , , 22, , , , 
192.168.212.111, , , 22, , , , 
192.168.212.112, , , 12, , , , 
192.168.212.114, , , 5, , , , 
192.168.212.115, , , 11, , , , 
192.168.212.116, , , 21, , , , 
192.168.212.117, , , 8, , , , 
192.168.212.118, , , 7, , , , 
192.168.212.119, , , 17, , , , 
192.168.212.120, , , 2, , , , 
192.168.212.121, , , 5, , , , 
192.168.212.122, , , 4, , , , 
192.168.212.123, , , 5, , , , 
192.168.212.124, , , 7, , , , 
192.168.212.125, , , 7, , , , 
192.168.212.126, , , 11, , , , 
192.168.212.127, , , 11, , , , 
192.168.212.128, , , 19, , , , 
192.168.212.129, , , 16, , , , 
192.168.212.130, , , 4, , , , 
192.168.212.131, , , 21, , , , 
192.168.212.132, , , 14, , , , 
192.168.212.133, , , 1, , , , 
192.168.212.134, , , 1, , , , 
192.168.212.135, , , 5, , , , 
192.168.212.136, , , 13, , , , 
192.168.212.137, , , 21, , , , 
192.168.212.138, , , 19, , , , 
192.168.212.139, , , 16, , , , 
192.168.212.140, , , 21, , , , 
192.168.212.141, , , 6, , , , 
192.168.212.142, , , 12, , , , 
192.168.212.143, , , 23, , , , 
192.168.212.144, , , 24, , , , 
192.168.212.145, , , 22, , , , 
192.168.212.146, , , 22, , , , 
192.168.212.147, , , 16, , , , 
192.168.212.148, , , 20, , , , 
192.168.212.149, , , 10, , , , 
192.168.212.150, , , 10, , , , 
192.168.212.151, , , 21, , , , 
192.168.212.152, , , 25, , , , 
192.168.212.153, , , 24, , , , 
192.168.212.154, , , 0, , , , 
192.168.212.155, , , 2, , , , 
192.168.212.156, , , 10, , , , 
192.168.212.157, , , 6, , , , 
192.168.212.158, , , 9, , , , 
192.168.212.159, , , 1, , , , 
192.168.212.160, , , 8, , , , 
192.168.212.161, , , 0, , , , 
192.168.212.162, , , 1, , , , 
192.168.212.163, , , 2, , , , 
192.168.212.164, , , 0, , , , 
192.168.212.165, , , 1, , , , 
192.168.212.166, , , 1, , , , 
192.168.212.167, , , 3, , , , 
192.168.212.168, , , 14, , , , 
192.168.212.169, , , 17, , , , 
192.168.212.170, , , 13, , , , 
192.168.212.171, , , 6, , , , 
192.168.212.172, , , 8, , , , 
192.168.212.173, , , 1, , , , 
192.168.212.174, , , 1, , , , 
192.168.212.175, , , 2, , , , 
192.168.212.176, , , 1, , , , 
192.168.212.177, , , 3, , , , 
192.168.212.178, , , 4, , , , 
192.168.212.179, , , 10, , , , 
192.168.212.180, , , 0, , , , 
192.168.212.181, , , 2, , , , 
192.168.212.182, , , 3, , , , 
192.168.212.183, , , 2, , , , 
192.168.212.184, , , 3, , , , 
192.168.212.185, , , 1, , , , 
192.168.212.186, , , 13, , , , 
192.168.212.187, , , 6, , , , 
192.168.212.188, , , 5, , , , 
192.168.212.189, , , 4, , , , 
192.168.212.190, , , 3, , , , 
192.168.212.191, , , 4, , , , 
192.168.212.192, , , 3, , , , 
192.168.212.193, , , 4, , , , 
192.168.212.194, , , 6, , , , 
192.168.212.195, , , 3, , , , 
192.168.212.196, , , 9, , , , 
192.168.212.197, , , 9, , , , 
192.168.212.198, , , 1, , , , 
192.168.212.199, , , 0, , , , 
192.168.212.200, , , 3, , , , 
192.168.212.201, , , 3, , , , 
192.168.212.202, , , 6, , , , 
192.168.212.203, , , 12, , , , 
192.168.212.204, , , 8, , , , 
192.168.212.205, , , 9, , , , 
192.168.212.206, , , 1, , , , 
192.168.212.207, , , 5, , , , 
192.168.212.208, , , 6, , , , 
192.168.212.209, , , 3, , , , 
192.168.212.210, , , 8, , , , 
192.168.212.211, , , 12, , , , 
192.168.212.212, , , 6, , , , 
192.168.212.214, , , 6, , , , 
192.168.212.215, , , 7, , , , 
192.168.212.216, , , 0, , , , 
192.168.212.217, , , 4, , , , 
192.168.212.218, , , 5, , , , 
192.168.212.219, , , 5, , , , 
192.168.212.220, , , 2, , , , 
192.168.212.221, , , 2, , , , 
192.168.212.222, , , 3, , , , 
192.168.212.223, , , 2, , , , 
192.168.212.224, , , 14, , , , 
192.168.212.225, , , 5, , , , 
192.168.212.226, , , 21, , , , 
192.168.212.227, , , 0, , , , 
192.168.212.228, , , 5, , , , 
192.168.212.229, , , 2, , , , 
192.168.212.230, , , 4, , , , 
192.168.212.231, , , 2, , , , 
192.168.212.232, , , 1, , , , 
192.168.212.233, , , 22, , , , 
192.168.212.234, , , 1, , , , 
192.168.212.235, , , 4, , , , 
192.168.212.236, , , 18, , , , 
192.168.212.237, , , 17, , , , 
192.168.212.238, , , 21, , , , 
192.168.212.239, , , 8, , , , 
192.168.212.240, , , 5, , , , 
192.168.212.241, , , 16, , , , 
192.168.212.242, , , 0, , , , 
192.168.212.243, , , 6, , , , 
192.168.212.244, , , 6, , , , 
192.168.212.245, , , 6, , , , 
192.168.212.247, , , 8, , , , 
192.168.212.248, , , 18, , , , 
192.168.212.249, , , 14, , , , 
192.168.212.250, , , 9, , , , 
192.168.212.251, , , 18, , , , 
192.168.212.252, , , 4, , , , 
192.168.212.254, , , 6, , , , 
192.168.215.252, , , 12, , , , 
192.168.215.253, , , 12, , , , 
