, , , , , , 
192.168.212.32, Fast, 28, 4.34B013, Chehova_19_abonent, R3DZ1C8000395, 90-94-E4-24-2D-20
192.168.212.50, DES-3200-28, 28, 1.82.B006, RTS, PVI41A4010668, 1C-BD-B9-47-30-20
192.168.212.51, DES-3200-28, 28, 1.82.B006, Ryabinovaya, PVI41A4010667, 1C-BD-B9-47-30-A0
192.168.212.52, DES-3200-28, 28, 1.82.B006, UgraExpo, PVI41AB003049, 5C-D9-98-FB-49-40
192.168.212.53, DES-3200-28, 28, 1.81.B003, Ledovaya_7, PVI41A4010646, 00-26-5A-90-F8-C0
192.168.212.54, DES-3200-28, 28, 1.80.B009, Yamskaya_20, PVZ81B3002162, 14-D6-4D-3F-F4-20
192.168.212.55, DES-3200-28, 28, 1.60.B009, Ledovaya_3, PVZ81B3002161, 14-D6-4D-40-10-C0
192.168.212.56, DES-3200-28, 28, 1.81.B003, Ledovaya_5, PVZ81B3002164, 14-D6-4D-40-37-C0
192.168.212.57, DES-3200-28, 28, 1.80.B009, Ledovaya_9, PVZ81B3002163, 14-D6-4D-40-10-80
192.168.212.58, DES-3200-26, 26, 1.60.B009, Dom_jurnalistov, PVHQ1A5012705, 1C-BD-B9-6C-2B-C0
192.168.212.59, DES-3200-28, 28, 1.80.B006, Yamskaya, PVI41A4010666, 00-26-5A-90-FA-A0
192.168.212.60, DES-3200-28, 28, 1.80.B009, Zelenodolskaya_9, PVI41A5005550, 1C-BD-B9-66-61-80
192.168.212.61, DES-3200-28, 28, 1.81.B003, Obezdnaya_10_1, PVI41A5005547, 1C-BD-B9-66-61-E0
192.168.212.62, DES-3200-28, 28, 1.80.B006, Gagarina_130_5, PVI41A5005546, 1C-BD-B9-66-3B-20
192.168.212.63, DES-3200-28, 28, 1.81.B003, PPPOE_Obezdnaya_6_1, PVI41A5005549, 1C-BD-B9-66-E1-20
192.168.212.64, DES-3200-28, 28, 1.80.B006, Zelenodolskaya, PVI41A5005548, 1C-BD-B9-66-3A-60
192.168.212.65, DES-3200-28, 28, 1.81.B003, Obezdnaya_8_1, PVI41A5005560, 1C-BD-B9-66-65-20
192.168.212.66, DES-3200-28, 28, 1.60.B008, Ledovaya_19_1, PVI41A5005559, 1C-BD-B9-66-3B-E0
192.168.212.67, DES-3200-28, 28, 1.81.B003, Ledovaya_19_3pod, PVI41A5005558, 1C-BD-B9-66-3B-80
192.168.212.68, DES-3200-28, 28, 1.80.B006, Yamskaya, PVI41A5005557, 1C-BD-B9-66-DF-80
192.168.212.69, DES-3200-28, 28, 1.80.B009, PPPOE_Obezdnaya_6_2, PVI41A5005556, 1C-BD-B9-66-3B-A0
192.168.212.70, DES-3200-28, 28, 1.81.B003, Yamskaya_3.1, PVI41A5006045, 1C-BD-B9-65-94-60
192.168.212.71, DES-3200-28, 28, 1.81.B003, Obezdnaya_6_3, PVI41A5006044, 1C-BD-B9-65-93-60
192.168.212.72, DES-3200-28, 28, 1.80.B006, Zelenodolskaya, PVI41A5006041, 1C-BD-B9-65-79-20
192.168.212.73, DES-3200-28, 28, 1.80.B009, Lermontova_19a_1, PVI41A5006042, 1C-BD-B9-65-93-80
192.168.212.74, DES-3200-28, 28, 1.80.B006, Obezdnaya_8_2, PVI41A5006043, 1C-BD-B9-65-79-40
192.168.212.75, DES-3200-28, 28, 1.80.B006, Ryab_13b, PVI41A5006081, 1C-BD-B9-65-7F-A0
192.168.212.76, DES-3200-28, 28, 1.80.B009, Yamskaya, PVI41A5006082, 1C-BD-B9-65-95-60
192.168.212.77, DES-3200-28, 28, 1.81.B003, Obezdnaya_8_3, PVI41A5006083, 1C-BD-B9-65-9F-80
192.168.212.78, DES-3200-28, 28, 1.80.B009, Obezdnaya_8_4, PVI41A5006084, 1C-BD-B9-65-7F-60
192.168.212.79, DES-3200-28, 28, 1.81.B003, Gagarina_130_2, PVI41A5006085, 1C-BD-B9-65-7E-60
192.168.212.80, DES-3200-28, 28, 1.80.B006, Kirova_35_2, PVI41A4010631, 1C-BD-B9-47-06-C0
192.168.212.81, DES-3200-28, 28, 1.80.B006, Yamskaya_4_3_1, PVI41A4010632, 1C-BD-B9-47-31-C0
192.168.212.82, DES-3200-28, 28, 1.81.B003, Kirova_39_2, PVI41A4010633, 1C-BD-B9-47-09-A0
192.168.212.83, DES-3200-28, 28, 1.80.B009, Obyaz_10_8, PVI41A4010635, 00-26-5A-90-F9-A0
192.168.212.84, DES-3200-28, 28, 1.81.B003, Obyaz_10_4, PVI41A4010634, 1C-BD-B9-47-06-E0
192.168.212.85, DES-3200-28, 28, 1.80.B006, Yamskaya_4_2_1, PVI41A5005503, 1C-BD-B9-66-E1-E0
192.168.212.86, DES-3200-28, 28, 1.81.B003, Zelenodolskaya_1_1, PVI41A5005501, 1C-BD-B9-66-38-E0
192.168.212.87, DES-3200-28, 28, 1.80.B006, Obyaz_12_5, PVI41A5005502, 1C-BD-B9-66-39-80
192.168.212.88, DES-3200-28, 28, 1.82.B006, Obezdnaya_10_2, PVI41A5005505, 1C-BD-B9-66-E2-40
192.168.212.89, DES-3200-28, 28, 1.81.B003, Ugorskaya_6_1, PVI41A5005504, 1C-BD-B9-66-62-40
192.168.212.90, DES-3200-28, 28, 1.80.B006, Obezdnaya_12_1_1, PVI41A5006056, 1C-BD-B9-65-93-00
192.168.212.91, DES-3200-28, 28, 1.81.B003, Zelenodolskaya_1_2, PVI41A5006057, 1C-BD-B9-65-78-E0
192.168.212.92, Fast, 52, 4.31B008, Yamskaya_12_1_2, R3931C3000129, 28-10-7B-58-F2-28
192.168.212.93, DES-3200-28, 28, 1.60.B009, Gagar_65_3, PVI41A5006059, 1C-BD-B9-65-78-40
192.168.212.94, Fast, 52, Such, Yamskaya_12_4_1, PV2V3B9000063, 5C-D9-98-CC-C1-F0
192.168.212.95, DES-3200-28, 28, 1.81.B003, Ryabin_13_1, PVI41A4001453, 00-26-5A-8D-68-C0
192.168.212.96, DES-3200-28, 28, 1.60.B009, Ryabin_13a_3, PVI41A4001452, 00-26-5A-8D-62-40
192.168.212.97, DES-3200-28, 28, 1.80.B009, Yamskaya_1, PVI41A4001451, 00-26-5A-8D-62-20
192.168.212.98, DES-3200-28, 28, 1.60.B009, Ryabin_11_2, PVI41A4001455, 00-26-5A-8D-5C-20
192.168.212.99, DES-3200-28, 28, 1.81.B003, Ryabinovaya_9, PVI41A4001454, 00-26-5A-91-E2-00
192.168.212.100, DES-3200-28, 28, 1.80.B009, Yamskaya_3, PVI41A4010598, 1C-AF-F7-90-82-20
192.168.212.101, DES-3200-28, 28, 1.81.B003, Yamskaya_5, PVI41A4010597, 1C-AF-F7-90-61-20
192.168.212.102, DES-3200-28, 28, 1.81.B003, Gagarina_132_2, PVI41A4010596, 1C-AF-F7-90-81-A0
192.168.212.103, DES-3200-28, 28, 1.81.B003, Ryabinovaya_20, PVI41A4010650, 1C-BD-B9-47-0C-00
192.168.212.104, DES-3200-28, 28, 1.81.B003, Ugorskaya_6_3, PVI41A4010599, 1C-AF-F7-90-61-80
192.168.212.105, Fast, 52, Such, Yamskaya_12_4_1, PV2V3B9000062, 5C-D9-98-CC-FF-D0
192.168.212.106, Fast, 52, 4.31B008, Yamskaya_12_1_2, R3931C3000093, 28-10-7B-58-F6-88
192.168.212.107, DES-3200-28, 28, 1.80.B009, Yamskaya_10_1, PVI41A4010672, 00-26-5A-91-9F-60
192.168.212.108, DES-3200-28, 28, 1.81.B003, Ryabin_9a_1, PVI41A4009462, 00-26-5A-90-5A-20
192.168.212.109, DES-3200-28, 28, 1.80.B009, Ryabin_9b_1, PVI41A4009461, 1C-BD-B9-46-F5-00
192.168.212.110, DES-3200-28, 28, 1.81.B003, Posad_16, PVI41A4009463, 1C-BD-B9-46-FC-80
192.168.212.111, DES-3200-28, 28, 1.81.B003, Ryabinovaya_11a, PVI41A4009464, 1C-BD-B9-47-0E-40
192.168.212.112, DES-3200-28, 28, 1.60.B009, Yamskaya_10_4_2, PVI41A4009465, 1C-BD-B9-47-02-00
192.168.212.114, DES-3200-28, 28, 1.60.B008, Mayakovskogo_9, PVI41A4009495, 00-26-5A-90-7C-00
192.168.212.115, DES-3200-28, 28, 1.81.B003, Studencheskaja_14, PVI41A5005567, 1C-BD-B9-66-61-20
192.168.212.116, DES-3200-28, 28, 1.80.B009, Dzer_30_2, PVI41A4009491, 1C-BD-B9-47-0B-00
192.168.212.117, DES-3200-28, 28, 1.80.B009, Cheh_19, PVI41A5005568, 1C-BD-B9-66-3C-E0
192.168.212.118, DES-3200-28, 28, 1.81.B003, Studencheskaja_18, PVI41A5006024, 1C-BD-B9-65-95-80
192.168.212.119, DES-3200-28, 28, 1.80.B009, Studencheskaja_15, PVI41A5006025, 1C-BD-B9-65-DD-60
192.168.212.120, DES-3200-28, 28, 1.82.B006, Svetlaja_43, PVI41A4009492, 00-26-5A-90-FB-E0
192.168.212.121, DES-3200-28, 28, 1.60.B009, Svetlaja_25, PVI41A5006021, 1C-BD-B9-65-96-A0
192.168.212.122, DES-3200-28, 28, 1.81.B003, Mayak_7, PVI41A5006023, 1C-BD-B9-65-7A-60
192.168.212.123, DES-3200-28, 28, 1.60.B009, Svetlaja_23, PVI41A5006022, 1C-BD-B9-65-96-80
192.168.212.124, DES-3200-28, 28, 1.60.B009, Svetlaya_21, PVI41A5005566, 1C-BD-B9-66-3B-C0
192.168.212.125, DES-3200-28, 28, 1.60.B009, Svetlaja_19, PVI41A4009467, 1C-BD-B9-47-0E-60
192.168.212.126, DES-3200-28, 28, 1.80.B006, Chehova27a, PVI41A4010608, 1C-AF-F7-90-60-E0
192.168.212.127, DES-3200-28, 28, 1.80.B006, Chehova27a, PVI41A4010609, 1C-AF-F7-90-8A-A0
192.168.212.128, DES-3200-28, 28, 1.81.B003, Studencheskaja_18_1, PVI41A4010607, 1C-AF-F7-90-60-80
192.168.212.129, DES-3200-28, 28, 1.60.B009, Studencheskaja_15_1, PVI41A4010606, 1C-AF-F7-90-61-60
192.168.212.130, DES-3200-28, 28, 1.81.B003, Studencheskaja_20, PVI41A4010610, 1C-BD-B9-46-FA-00
192.168.212.131, DES-3200-28, 28, 1.82.B006, Lygov_9, PVI41A5005572, 1C-BD-B9-66-E0-60
192.168.212.132, DES-3200-28, 28, 1.81.B003, Studencheskaja_14_1, PVI41A5005571, 1C-BD-B9-66-61-40
192.168.212.133, DES-3200-28, 28, 1.60.B009, Svetlaja_39, PVI41A5006027, 1C-BD-B9-65-7A-00
192.168.212.134, DES-3200-28, 28, 1.60.B009, Svetlaja_41, PVI41A5006026, 1C-BD-B9-65-7A-C0
192.168.212.135, DES-3200-28, 28, 1.60.B009, Studencheskaja_16, PVI41A5006028, 1C-BD-B9-65-93-E0
192.168.212.136, DES-3200-28, 28, 1.81.B003, Svetlaja_37, PVI41A5006030, 1C-BD-B9-65-79-80
192.168.212.137, DES-3200-28, 28, 1.82.B006, Studencheskaja_16_1, PVI41A4009494, 00-26-5A-90-F5-20
192.168.212.138, DES-3200-28, 28, 1.81.B003, Svetlaja_69, PVI41A4009493, 00-26-5A-90-FB-80
192.168.212.139, DES-3200-28, 28, 1.60.B009, Svetlaja_69_1, PVI41A5005573, 1C-BD-B9-66-3C-C0
192.168.212.140, DES-3200-28, 28, 1.81.B003, Studencheskaja_20_1, PVI41A5006029, 1C-BD-B9-65-95-A0
192.168.212.141, DES-3200-28, 28, 1.60.B009, Svetlaja_27, PVI41A5005575, 1C-BD-B9-66-3C-20
192.168.212.142, DES-3200-28, 28, 1.60.B009, Dzer_30_5, PVI41A5005574, 1C-BD-B9-66-63-40
192.168.212.143, DES-3200-28, 28, 1.82.B006, Eleni_1, PVI41A5006064, 1C-BD-B9-65-93-20
192.168.212.144, Fast, 28, 4.32B006, Studencheskaja_15a, R3DZ1C4007780, CC-B2-55-7C-75-80
192.168.212.145, DES-3200-28, 28, 1.82.B006, Raznina_105, PVI41A5006062, 1C-BD-B9-65-77-C0
192.168.212.146, DES-3200-28, 28, 1.80.B009, Raznina_105_2, PVI41A5006061, 1C-BD-B9-65-94-A0
192.168.212.147, DES-3200-28, 28, 1.81.B003, Raznina_105_2, PVI41A5006063, 1C-BD-B9-65-77-E0
192.168.212.148, DES-3200-28, 28, 1.60.B009, Raznina_105_3, PVI41A5006070, 1C-BD-B9-65-92-80
192.168.212.149, DES-3200-28, 28, 1.80.B009, Dzer_25_2, PVI41A5006069, 1C-BD-B9-65-94-20
192.168.212.150, DES-3200-28, 28, 1.60.B009, Dzer_25_4, PVI41A5006068, 1C-BD-B9-65-80-60
192.168.212.151, DES-3200-28, 28, 1.81.B003, Svetlaya_67_1, PVI41A5006066, 1C-BD-B9-65-7C-80
192.168.212.152, DES-3200-28, 28, 1.80.B006, Eleni_1, PVI41A5006067, 1C-BD-B9-65-7F-E0
192.168.212.153, DES-3200-28, 28, 1.60.B009, Ledovaya_11_4, PVI41AC005172, 34-08-04-37-53-D0
192.168.212.154, DES-3200-28, 28, 1.80.B009, Zelenodolskaya_5_1_2, PVUE1B5001172, 14-D6-4D-6A-33-A0
192.168.212.155, DES-3200-28, 28, 1.60.B009, Lopareva_12.1, PVI41AC005171, 34-08-04-37-49-70
192.168.212.156, DES-3200-28, 28, 1.60.B009, Mira_61_2, PVI41AC005174, 34-08-04-37-54-70
192.168.212.157, DES-3200-28, 28, 1.80.B009, Dzer_30_2_2, PVUE1B5001173, 14-D6-4D-69-BF-C0
192.168.212.158, DES-3200-28, 28, 1.81.B003, Promishlenaya_2, PVI41AC005140, 34-08-04-37-35-70
192.168.212.159, DES-3200-28, 28, 1.60.B009, Kalinina_18_2, PVI41AC005139, 34-08-04-37-56-F0
192.168.212.160, DES-3200-28, 28, 1.80.B006, Roznina_124, PVI41AC005136, 34-08-04-37-35-F0
192.168.212.161, DES-3200-28, 28, 1.60.B008, Chehova_49, PVI41AC005137, 34-08-04-37-4E-10
192.168.212.162, DES-3200-28, 28, 1.60.B008, Chkalova_40_3, PVI41AC005138, 34-08-04-37-35-90
192.168.212.163, DES-3200-28, 28, 1.60.B009, Mindeleeva_2, PVI41AC001439, 34-08-04-5B-9A-B0
192.168.212.164, DES-3200-28, 28, 1.60.B009, Mindeleeva_3, PVI41AC001440, 34-08-04-5B-9B-B0
192.168.212.165, DES-3200-28, 28, 1.80.B009, Obezdnaya_8_1_2, PVUE1B5001171, 14-D6-4D-6A-10-40
192.168.212.166, DES-3200-28, 28, 1.60.B009, Chehova_26_4, PVI41AC001436, 34-08-04-5B-21-50
192.168.212.167, DES-3200-28, 28, 1.60.B009, Chehova_26_4, PVI41AC001438, 34-08-04-5B-20-F0
192.168.212.168, DES-3200-28, 28, 1.80.B009, Sirina_68b_6, PVI41AC000034, 34-08-04-5A-48-F0
192.168.212.169, DES-3200-28, 28, 1.81.B003, Sirina_68b_2, PVI41AC000035, 34-08-04-5B-5A-90
192.168.212.170, DES-3200-28, 28, 1.81.B003, Sirina_68b_4, PVI41AC000033, 34-08-04-5B-A0-F0
192.168.212.171, DES-3200-28, 28, 1.60.B009, Sirina_76_1, PVI41AC000031, 34-08-04-5B-58-D0
192.168.212.172, DES-3200-28, 28, 1.51.B009, Sirina_76_4, PVI41AC000032, 34-08-04-5B-A1-F0
192.168.212.173, DES-3200-28, 28, 1.80.B009, Posadskaya_16_1_2, PVUE1B5001143, 14-D6-4D-6A-49-20
192.168.212.174, DES-3200-28, 28, 1.60.B009, Shevchenko_19_2, PVI41AC005159, 34-08-04-37-55-F0
192.168.212.175, DES-3200-28, 28, 1.60.B009, Shevchenko_19_3, PVI41AC005160, 34-08-04-37-4A-D0
192.168.212.176, DES-3200-28, 28, 1.60.B009, Mindeleeva_3a_3, PVI41AC005157, 34-08-04-37-5A-F0
192.168.212.177, DES-3200-28, 28, 1.60.B009, Mindeleeva_3a_2, PVI41AC005156, 34-08-04-37-4D-30
192.168.212.178, DES-3200-28, 28, 1.80.B009, Promishlenaya_2, PVI41AC001166, 34-08-04-5B-0E-F0
192.168.212.179, DES-3200-28, 28, 1.82.B006, Pionerskaya_118_4, PVI41AC001167, 34-08-04-5B-0E-50
192.168.212.180, DES-3200-28, 28, 1.60.B009, Gagarina_27a, PVI41AC001168, 34-08-04-5A-F8-70
192.168.212.181, DES-3200-28, 28, 1.60.B008, Engelsa_15_2, PVI41AC001169, 34-08-04-5B-0E-70
192.168.212.182, DES-3200-28, 28, 1.60.B009, Chehova_51_2, PVI41AC001170, 34-08-04-5B-0E-30
192.168.212.183, DES-3200-28, 28, 1.80.B009, Pioner_27, PVI41AC005189, 34-08-04-37-51-F0
192.168.212.184, DES-3200-28, 28, 1.80.B006, Pioner_27_6, PVI41AC005186, 34-08-04-37-54-B0
192.168.212.185, DES-3200-28, 28, 1.52.B009, Engelsa_15a_1, PVI41AC005187, 34-08-04-37-54-F0
192.168.212.186, DES-3200-28, 28, 1.81.B003, Engelsa, PVI41AC005188, 34-08-04-37-49-B0
192.168.212.187, DES-3200-28, 28, 1.60.B008, Engelsa_26, PVI41AC005190, 34-08-04-37-52-B0
192.168.212.188, DES-3200-28, 28, 1.60.B008, Pionersakaya_25_5, PVI41AC005111, 34-08-04-37-3C-90
192.168.212.189, DES-3200-28, 28, 1.60.B009, Pionersakaya_25, PVI41AC005112, 34-08-04-37-3C-10
192.168.212.190, DES-3200-28, 28, 1.60.B009, Karla_Marksa_30_1, PVI41AC005114, 34-08-04-37-3C-30
192.168.212.191, DES-3200-28, 28, 1.52.B005, KMarksa_28_2, PVI41AC005115, 34-08-04-37-3B-D0
192.168.212.192, DES-3200-28, 28, 1.60.B008, Engelsa_12, PVI41AC005113, 34-08-04-37-3C-70
192.168.212.193, DES-3200-28, 28, 1.51.B009, Lenina_42_2, PVI41AC001411, 34-08-04-5B-9C-70
192.168.212.194, DES-3200-28, 28, 1.51.B009, Lenina_40_5, PVI41AC001412, 34-08-04-5B-9C-90
192.168.212.195, DES-3200-28, 28, 1.51.B009, Lenina_42, PVI41AC001413, 34-08-04-5A-E8-10
192.168.212.196, DES-3200-28, 28, 1.82.B006, Lenina_40_2, PVI41AC001414, 34-08-04-5A-E7-D0
192.168.212.197, DES-3200-28, 28, 1.80.B009, Lenina_40_7, PVI41AC001415, 34-08-04-5B-21-70
192.168.212.198, DES-3200-28, 28, 1.52.B005, Lenina_39_5, PVI41AC001146, 34-08-04-5B-16-F0
192.168.212.199, DES-3200-28, 28, 1.52.B005, Lenina_39_2, PVI41AC001147, 34-08-04-5B-16-90
192.168.212.200, DES-3200-28, 28, 1.60.B009, Karla_Marksa_28_3, PVI41AC001148, 34-08-04-5B-1D-10
192.168.212.201, DES-3200-28, 28, 1.80.B009, Pionerskaya_29_2, PVI41AC001149, 34-08-04-5B-16-B0
192.168.212.202, DES-3200-28, 28, 1.80.B009, Pionerskaya_29_5, PVI41AC001150, 34-08-04-5B-2A-10
192.168.212.203, DES-3200-28, 28, 1.60.B008, Komsomilskaya_17, PVI41AC001383, 34-08-04-5B-28-30
192.168.212.204, DES-3200-28, 28, 1.80.B006, Kalinina_22, PVI41AC001382, 34-08-04-5A-EB-50
192.168.212.205, DES-3200-28, 28, 1.60.B008, Pionerskaya_117, PVI41AC001381, 34-08-04-5A-ED-90
192.168.212.206, DES-3200-28, 28, 1.60.B008, Pionerskaya_113, PVI41AC001384, 34-08-04-5A-EC-B0
192.168.212.207, DES-3200-28, 28, 1.60.B008, Pionerskaya_118_2, PVI41AC001385, 34-08-04-5A-ED-D0
192.168.212.208, DES-3200-28, 28, 1.80.B009, Pushkina_3, PVI41AC005126, 34-08-04-37-58-10
192.168.212.209, DES-3200-28, 28, 1.52.B005, Engelsa_56_2, PVI41AC005127, 34-08-04-37-3B-50
192.168.212.210, DES-3200-28, 28, 1.52.B005, Engelsa_56_3, PVI41AC005128, 34-08-04-37-57-50
192.168.212.211, DES-3200-28, 28, 1.60.B009, Engelsa_54, PVI41AC005129, 34-08-04-37-4D-70
192.168.212.212, DES-3200-28, 28, 1.51.B009, Engelsa_52, PVI41AC005130, 34-08-04-37-35-D0
192.168.212.213, DES-3200-28, 28, 1.80.B009, Ledovaya_11_1, PVI41AC005121, 34-08-04-37-59-90
192.168.212.214, DES-3200-28, 28, 1.80.B009, Stroitelei_90a_2, PVUE1B5001142, 14-D6-4D-6A-34-80
192.168.212.215, DES-3200-28, 28, 1.60.B009, Mira_61_1, PVI41AC005123, 34-08-04-37-3B-70
192.168.212.216, DES-3200-28, 28, 1.80.B009, Ryabinovaya_13a_2, PVUE1B5001144, 14-D6-4D-6A-04-40
192.168.212.217, DES-3200-28, 28, 1.80.B009, Sduden_5_3etazh, PVUE1B5001145, 14-D6-4D-6A-34-A0
192.168.212.218, DES-3200-28, 28, 1.60.B009, Gagarina_193, PVI41AC005141, 34-08-04-37-4C-10
192.168.212.219, DES-3200-28, 28, 1.60.B009, Kalinina_22a_2, PVI41AC005142, 34-08-04-37-34-F0
192.168.212.220, DES-3200-28, 28, 1.60.B009, Komsomolskaya_29, PVI41AC005143, 34-08-04-37-4C-70
192.168.212.221, DES-3200-28, 28, 1.80.B006, Pionerskaya_81_1, PVI41AC005144, 34-08-04-37-56-B0
192.168.212.222, DES-3200-28, 28, 1.60.B008, Kominterna_13, PVI41AC005145, 34-08-04-37-35-10
192.168.212.223, DES-3200-28, 28, 1.80.B009, Mira_59_1, PVI41AC005120, 34-08-04-37-57-70
192.168.212.224, DES-3200-28, 28, 1.82.B006, Engelsa, PVI41AC005116, 34-08-04-37-4D-10
192.168.212.225, DES-3200-28, 28, 1.60.B009, Gagarina_27b, PVI41AC005117, 34-08-04-37-3B-B0
192.168.212.226, DES-3200-28, 28, 1.81.B003, Ryabinovaya_30, PVI41AC005118, 34-08-04-37-3C-B0
192.168.212.227, DES-3200-28, 28, 1.60.B008, Pionerskaya_115, PVI41AC005119, 34-08-04-37-3B-90
192.168.212.228, DES-3200-28, 28, 1.60.B008, Chkalova_40_3, PVI41AC005131, 34-08-04-37-4D-90
192.168.212.229, DES-3200-28, 28, 1.60.B008, Chehova_51_3, PVI41AC005132, 34-08-04-37-35-B0
192.168.212.230, DES-3200-28, 28, 1.60.B009, Engelsa_15_2, PVI41AC005133, 34-08-04-37-3B-30
192.168.212.231, DES-3200-28, 28, 1.60.B008, Chkalova_40_1, PVI41AC005134, 34-08-04-37-36-10
192.168.212.232, DES-3200-28, 28, 1.51.B009, Engelsa_3, PVI41AC005135, 34-08-04-37-4D-D0
192.168.212.233, DES-3200-28, 28, 1.81.B003, Obezdnaya_6_3_1, PVI41AC001140, 34-08-04-5B-2A-30
192.168.212.234, DES-3200-28, 28, 1.51.B009, Ryabin_9a, PVI41AC001137, 34-08-04-5B-17-10
192.168.212.235, DES-3200-28, 28, 1.51.B009, Ryabin_11a, PVI41AC001138, 34-08-04-5B-2A-50
192.168.212.236, DES-3200-28, 28, 1.81.B003, Ryabin_20, PVI41AC001139, 34-08-04-5B-16-D0
192.168.212.237, DES-3200-28, 28, 1.80.B006, Eleni_1_2, PVI41AC001136, 34-08-04-5A-53-B0
192.168.212.238, DES-3200-28, 28, 1.80.B009, Svetlaya_67_2, PVI41AB003056, 5C-D9-98-FB-49-20
192.168.212.239, DES-3200-28, 28, 1.80.B009, Ledovaya_5_2, PVI41AB003057, 5C-D9-98-FB-49-00
192.168.212.240, DES-3200-28, 28, 1.60.B009, Office_local, PVI41AB003058, 5C-D9-98-FB-49-A0
192.168.212.241, DES-3200-28, 28, 1.60.B008, Obezdnaya_8_4, PVI41A4010600, 1C-AF-F7-90-8A-80
192.168.212.242, DES-3200-28, 28, 1.52.B005, PPPOE_Obezdnaya_6_1, PVI41AA004340, 5C-D9-98-12-BE-B0
192.168.212.243, DES-3200-28, 28, 1.80.B005, Ryabinovaya_9b_1_2, PVI41AA004339, 5C-D9-98-12-B6-30
192.168.212.244, DES-3200-28, 28, 1.80.B006, Obezdnaya_10_4, PVI41AA004338, 5C-D9-98-12-8F-50
192.168.212.245, DES-3200-28, 28, 1.80.B009, Studencheskaja_15_1, PVI41AA004337, 5C-D9-98-12-8F-70
192.168.212.246, Fast, 52, Such, Lygov_9_2, PV2V3B9000061, 5C-D9-98-CC-C2-E0
192.168.212.247, DES-3200-26, 26, 1.80.B009, Mira_115, PVHQ1A5013205, 1C-BD-B9-68-81-C0
192.168.212.248, DES-3200-28, 28, 1.60.B008, Obyezdnaya_10_8, PVZ82B7003480, 1C-7E-E5-6E-DB-E0
192.168.212.249, DES-3200-28, 28, 1.60.B008, Ledovaya_19, PVZ82B7003479, 1C-7E-E5-6E-8F-00
192.168.212.250, DES-3200-28, 28, 1.60.B008, Ledovaya_19, PVZ82B7003476, 1C-7E-E5-6E-F8-60
192.168.212.251, DES-3200-28, 28, 1.82.B006, Svetlaya_67, PVI41A5006065, 1C-BD-B9-65-80-40
192.168.212.252, DES-3200-28, 28, 1.60.B008, Tepografia, PVZ81B3002165, 14-D6-4D-40-11-20
192.168.212.254, DES-3200-28, 28, 1.80.B006, Pionerskaya_48_5, PVI41B1000827, 34-08-04-60-5E-10
192.168.213.1, DES-3200-28, 28, 1.60.B008, Obskaya_29, PVI41B1000826, 34-08-04-60-5E-30
192.168.213.2, DES-3200-28, 28, 1.52.B005, Pion_46_1, PVI41B1000830, 34-08-04-60-5E-90
192.168.213.3, DES-3200-28, 28, 1.60.B009, Pionerskaya_46_5, PVI41B1000828, 34-08-04-60-5D-F0
192.168.213.4, DES-3200-28, 28, 1.52.B005, Engelsa_3_4, PVI41AA004389, 5C-D9-98-12-BB-50
192.168.213.5, DES-3200-28, 28, 1.52.B005, , PVI41AA004390, 5C-D9-98-12-BB-90
192.168.213.6, DES-3200-28, 28, 1.60.B009, Engelsa_3_16, PVI41AA004387, 5C-D9-98-12-AB-30
192.168.213.7, DES-3200-28, 28, 1.60.B009, Engelsa_27_1, PVI41AA004386, 5C-D9-98-12-BB-70
192.168.213.8, DES-3200-28, 28, 1.80.B006, Engelsa_3_2pod, PVI41AA004388, 5C-D9-98-12-1C-10
192.168.213.9, DES-3200-28, 28, 1.60.B009, Komsomilskaya_28_4, PVI41AA003296, 5C-D9-98-12-A0-30
192.168.213.10, DES-3200-28, 28, 1.60.B009, Komsomilskaya_28_1, PVI41AA003297, 5C-D9-98-12-95-90
192.168.213.11, DES-3200-28, 28, 1.60.B009, Komsamolskaya_31_2, PVI41AA003298, 5C-D9-98-12-8F-B0
192.168.213.12, DES-3200-28, 28, 1.60.B009, Doronina_26, PVI41AA003299, 5C-D9-98-12-27-50
192.168.213.13, DES-3200-28, 28, 1.60.B009, Doronina_28_1, PVI41AA004372, 5C-D9-98-12-B5-B0
192.168.213.14, DES-3200-28, 28, 1.60.B009, Pionerskaya_46_7, PVI41AA004371, 5C-D9-98-12-BE-70
192.168.213.15, DES-3200-28, 28, 1.60.B009, Engelsa_3_5, PVI41AA004375, 5C-D9-98-12-39-50
192.168.213.16, DES-3200-28, 28, 1.60.B009, Chekalova_29, PVI41AA004374, 5C-D9-98-12-8F-D0
192.168.213.17, DES-3200-28, 28, 1.60.B009, Chekalova_43, PVI41AA004373, 5C-D9-98-12-1B-10
192.168.213.18, DES-3200-28, 28, 1.60.B009, Doronina_30, PVI41AA004354, 5C-D9-98-12-BE-90
192.168.213.20, DES-3200-28, 28, 1.52.B005, Engelsa_3_12, PVI41AA004353, 5C-D9-98-12-AD-50
192.168.213.21, DES-3200-28, 28, 1.60.B009, Engelsa_3_14, PVI41AA004351, 5C-D9-98-12-AE-30
192.168.213.22, DES-3200-28, 28, 1.52.B005, Engelsa_3_7, PVI41AA004352, 5C-D9-98-12-C3-30
192.168.213.23, Gigabit, 10, Such, Voenkomat, PVM61B2000660, 34-08-04-98-48-6F
192.168.213.24, DES-3200-28, 28, 1.60.B008, Territor_pervyh_2etazh, PVZ82B6008021, 1C-7E-E5-69-2F-E0
192.168.213.25, DES-3200-28, 28, 1.60.B008, Terr_pervyh_cherdak_1, PVZ82B6008022, 1C-7E-E5-69-59-40
192.168.213.26, DES-3200-28, 28, 1.60.B009, Terr_pervyh_cherdak_2, PVZ82B6008023, 1C-7E-E5-69-30-00
192.168.213.27, DES-3200-28, 28, 1.82.B006, Obyezdnaya_8, PVZ82B7003477, 1C-7E-E5-6E-DD-20
192.168.213.28, DES-3200-28, 28, 1.60.B008, Ryabinovaya_9, PVZ82B7003478, 1C-7E-E5-6E-8F-20
192.168.213.29, DES-3200-28, 28, 1.60.B008, Ugorskaya_6_1, PVZ82B6008183, 1C-7E-E5-69-D8-00
192.168.213.30, DES-3200-28, 28, 1.81.B003, Obezdnaya_8_11, PVZ82B6008182, 1C-7E-E5-69-D9-80
192.168.213.31, DES-3200-10, 10, 1.52.B010, Studencheskaya_15b, PVI31A6003160, F0-7D-68-A2-A3-7C
192.168.213.32, DES-3200-28, 28, 1.80.B006, Yamskaya_1_3_2, PVUE1B5001141, 14-D6-4D-6A-51-C0
192.168.213.35, DES-3200-28, 28, 1.81.B003, Stroitelei_90a, PVI41AA004355, 5C-D9-98-12-AD-10
192.168.213.37, DES-3200-10, 10, 1.60.B008, UGU, PVI31A9004845, F0-7D-68-A5-66-38
192.168.213.38, DES-3200-10, 10, 1.60.B009, Eparhiya, PVI31A8003958, F0-7D-68-A3-EB-0C
192.168.213.39, DES-3200-28, 28, 1.60.B009, Ugorskaya_6_3_2, PVZ82B6008245, 1C-7E-E5-69-D0-00
192.168.213.40, DES-3200-28, 28, 1.80.B006, Obyezdnaya_12_5_2, PVZ82B6008207, 1C-7E-E5-69-A9-40
192.168.213.41, DES-3200-28, 28, 1.80.B009, Kalinina_26, PVZ82BB005417, FC-75-16-F3-DB-60
192.168.213.42, DES-3200-28, 28, 1.60.B009, Kalinina_26_2, PVZ82BB005416, FC-75-16-F3-DB-20
192.168.213.45, DES-3200-10, 10, 1.60.B009, Komsomolskaya_59a, PVI31A8003960, F0-7D-68-A3-DE-E8
192.168.213.46, DES-3200-10, 10, 1.60.B009, Stomatologiya, PVI31A9004841, F0-7D-68-A5-34-40
192.168.213.47, DES-3200-10, 10, 1.60.B009, Gagarina,214, PVI31C1000371, 34-08-04-66-1F-F4
192.168.213.48, DES-3200-10, 10, 1.60.B009, Mira_108, PVI31C1000372, 34-08-04-66-1F-DC
192.168.213.50, DES-3200-28, 28, 1.80.B005, Ledovaya_11_4_2, PVI41A5006060, 1C-BD-B9-65-78-00
192.168.213.51, DES-3200-28, 28, 1.80.B005, Zelenodolskaya_1_5, PVI41A4009466, 00-26-5A-90-E1-80
192.168.213.52, DES-3200-28, 28, 1.80.B005, Sirina_68b_2, PVZ82B6008209, 1C-7E-E5-69-D1-80
192.168.213.53, DES-3200-28, 28, 1.80.B005, Obezdnaya_6_7, PVZ82B6008208, 1C-7E-E5-69-A8-C0
192.168.213.54, DES-3200-28, 28, 1.80.B006, Yamskaya_4_3_2, PVZ82B6008210, 1C-7E-E5-69-D1-A0
192.168.213.55, DES-3200-28, 28, 1.80.B006, Yamskaya_4_2_2, PVI41AA004336, 5C-D9-98-12-B6-10
192.168.213.56, DES-3200-28, 28, 1.80.B006, Obezdnaya_12_1_2, PVZ82B6008243, 1C-7E-E5-69-CF-E0
192.168.213.57, Fast, 10, 4.34B008, UTEK, R3J11C8000745, 90-94-E4-41-B8-10
192.168.213.58, DES-3200-28, 28, 1.82.B002, Chehova_16_UGU, PVUE1B5001175, 14-D6-4D-6A-47-20
192.168.213.60, Fast, 52, 4.35B010, Olympiyskaya, R3931C1000511, 28-10-7B-58-63-C0
192.168.213.61, Fast, 52, 4.35B010, Olympiyskaya, R3931C1000512, 28-10-7B-58-18-80
192.168.213.62, DES-3200-28, 28, 1.80.B006, Olympiyskaya, PVZ82BB005162, FC-75-16-F4-69-80
192.168.213.63, Fast, 52, 4.35B010, Olympiyskaya, R3931C1000513, 28-10-7B-58-18-B8
192.168.213.64, Fast, 52, 4.35B010, Olympiyskaya, R3931C1000320, 28-10-7B-58-37-C8
192.168.213.65, Fast, 52, 4.35B010, Olympiyskaya, R3931C1000321, 28-10-7B-58-60-B0
192.168.213.66, Fast, 52, 4.35B010, Olympiyskaya, R3931C1000319, 28-10-7B-58-38-E0
192.168.213.67, Fast, 52, 4.35B010, Olympiyskaya, R3931C1000250, 28-10-7B-58-4F-30
192.168.213.68, Fast, 52, 4.35B010, Olympiyskaya, R3931C1000252, 28-10-7B-58-4F-68
192.168.213.69, Fast, 52, 4.34B014, Olympiyskaya, R3931C1000251, 28-10-7B-58-48-D8
192.168.213.70, DES-3200-28, 28, 1.80.B006, Olympiyskaya, PVZ82BB004269, FC-75-16-F3-9D-20
192.168.213.71, DES-3200-28, 28, 1.80.B009, Olympiyskaya, PVZ82BB004270, FC-75-16-F3-9C-C0
192.168.213.72, Fast, 28, 4.32B007, Ugorskaya_9_7, R3DZ1C4007778, CC-B2-55-7C-73-60
192.168.213.73, Fast, 28, 4.33B004, Ugorskaya_9_7_2, R3DZ1C4007779, CC-B2-55-7C-76-20
192.168.213.74, Fast, 28, 4.34B004, Ugorskaya_9_5, R3DZ1C4007777, CC-B2-55-7C-73-A0
192.168.213.75, Fast, 28, 4.34B008, Ugorskaya_9_5_2, R3DZ1C4007776, CC-B2-55-7C-73-20
192.168.213.76, Fast, 28, 4.33B004, Ugorskaya_9_3, R3DZ1C4007797, CC-B2-55-7C-72-60
192.168.213.77, Fast, 28, 4.33B004, Ugorskaya_9_3_2, R3DZ1C4007796, CC-B2-55-7C-72-80
192.168.213.78, Fast, 28, 4.33B004, Doronina_8_1, R3DZ1C4007800, CC-B2-55-7C-73-40
192.168.213.79, Fast, 28, 4.33B004, Doronina_6_1, R3DZ1C4007799, CC-B2-55-7C-72-A0
192.168.213.80, Fast, 28, 4.33B004, Doronina_6_2, R3DZ1C4007798, CC-B2-55-7C-72-C0
192.168.213.83, Fast, 28, 4.33B004, Doronina_8_2, R3DZ1C4007768, CC-B2-55-7C-73-00
192.168.213.84, DES-3200-28, 28, 1.82.B006, Yamskaya_16_3_1, PVI41AC005175, 34-08-04-37-55-90
192.168.213.86, DES-3200-28, 28, 1.82.B006, Yamskaya_16_1_1, PVI41AC005158, 34-08-04-37-56-50
192.168.213.87, Fast, 28, 4.33B004, Yamskaya_16_1_2, R3DZ1C4007770, CC-B2-55-7C-74-00
192.168.213.88, DES-3200-28, 28, 1.82.B006, Yamskaya_14_3_1, PVI41AC005173, 34-08-04-37-55-70
192.168.213.89, DES-3200-28, 28, 1.82.B006, Yamskaya_14_3_2, PVI41AC005124, 34-08-04-37-36-30
192.168.213.90, Fast, 28, 4.33B004, Yamskaya_14_1_1, R3DZ1C4007769, CC-B2-55-7C-74-80
192.168.213.91, DES-3200-28, 28, 1.82.B006, Yamskaya_14_1_2, PVI41AC005122, 34-08-04-37-57-D0
192.168.213.92, DES-3200-28, 28, 1.81.B003, Studencheskaya_15a_6et, PVI41AC005125, 34-08-04-37-4D-50
192.168.213.93, DES-3200-28, 28, 1.82.B006, Studencheskaya_15a_10et, PVI41AC001437, 34-08-04-5B-23-30
192.168.213.94, Fast, 10, 4.33B007, Filipenko, R3J11C6000635, CC-B2-55-21-AD-B0
192.168.213.95, Fast, 10, 4.33B007, Pushkina_39, R3J11C7001004, 90-94-E4-40-91-F0
192.168.213.96, Fast, 52, 4.33B008, Studencheskaya_15a_6e_2, R3931C3000091, 28-10-7B-58-EB-98
192.168.213.97, DES-3200-28, 28, 1.80.B006, Pionerskaya_48_2, PVI41B1000829, 34-08-04-60-BB-70
192.168.213.98, Fast, 10, 4.34B004, Sirina_16, R3J11C8000741, 90-94-E4-41-B8-B0
192.168.213.99, Fast, 28, 4.34B004, Studencheskaja_15a, R3DZ1C8000394, 90-94-E4-24-30-40
192.168.213.101, Fast, 10, 4.34B004, Dzer_11, R3J11C7001002, 90-94-E4-40-59-E0
192.168.213.103, Fast, 28, 4.34B004, Ryabinovaya_30, R3DZ1C8000393, 90-94-E4-24-2C-80
192.168.213.104, Fast, 28, 4.34B007, Ugorskaya_Dolina, R3DZ1C8000388, 90-94-E4-24-2D-80
192.168.213.105, Fast, 28, 4.34B007, Na_Semi_Holmah, R3DZ1C8000352, 90-94-E4-24-3B-60
192.168.213.106, Fast, 28, 4.34B007, Biznes_cwntr, R3DZ1C8000391, 90-94-E4-24-2F-60
192.168.213.108, Fast, 10, 4.34B004, Lenina_52, R3J11C8000744, 90-94-E4-41-B8-50
192.168.213.109, Fast, 28, 4.34B009, Studencheskaja_15a_1, R3DZ1C4007744, CC-B2-55-7C-8D-E0
192.168.213.110, Fast, 28, 4.34B004, Svetlaya_40, R3DZ1C4007766, CC-B2-55-7C-73-E0
192.168.213.111, Fast, 10, 4.34B009, Ostrovskogo_32, R3J11C7001005, 90-94-E4-40-91-E0
192.168.213.112, Fast, 28, 4.34B009, Tobolskiy_trakt-4, R3921C3000183, 28-10-7B-FB-80-00
192.168.213.113, Fast, 28, 4.34B009, , R3DZ1C4005437, CC-B2-55-7D-14-E0
192.168.213.114, Fast, 28, 4.34B009, ___, R3DZ1C4005440, CC-B2-55-7C-D6-20
192.168.213.115, , , , , , 
192.168.213.116, Fast, 28, 4.34B008, Sokol, R3921C3000106, 28-10-7B-FB-9E-60
192.168.213.117, Fast, 28, 4.34B008, Studencheskaya_5, R3DZ1C8000387, 90-94-E4-24-2F-20
192.168.213.118, Fast, 28, 4.34B008, ___, R3DZ1C4008851, CC-B2-55-7D-6C-00
192.168.213.119, Fast, 28, 4.34B008, Sduden_3_obsh_6, R3DZ1C4008853, CC-B2-55-7D-5D-80
192.168.213.120, Fast, 28, 4.34B009, , R3DZ1C4008852, CC-B2-55-7D-5F-C0
192.168.213.121, Fast, 28, 4.34B013, RTS_5_Stoika, R3DZ1C4008855, CC-B2-55-7D-5B-E0
192.168.213.122, Fast, 10, 4.34B013, ___, R3J11C8000450, 90-94-E4-41-D9-10
192.168.213.123, Fast, 28, 4.34B009, , R3DZ1C8000351, 90-94-E4-24-32-80
192.168.213.124, , , , , , 
192.168.213.125, DES-3200-28, 28, 1.82.B002, Ledovii_dvorec, PVI41A5006058, 1C-BD-B9-65-93-40
192.168.213.132, DES-3200-28, 28, 1.82.B002, KTC_Vremenno, PVI41A4009470, 00-26-5A-90-FC-40
192.168.215.249, DES-3052, 52, 2.90.B05, VersoMonolit, PVSX1B2000068, 34-08-04-9C-5E-7D
192.168.215.250, DES-3052, 52, 2.90.B05, VersoMonolit, PVSX1B2000067, 34-08-04-9C-5E-7C
192.168.215.252, DES-3200-28, 28, 1.81.B003, Hotel, PVI41AB003067, 5C-D9-98-FB-46-C0
192.168.215.253, DES-3200-28, 28, 1.81.B003, Hotel, PVI41AB003066, 5C-D9-98-13-32-30
192.168.215.254, Fast, 52, Such, Hotel, PV2V2A6000158, 1C-BD-B9-3C-66-A0
addresses, , , , , , 
