192.168.212.100
192.168.212.101
192.168.212.102
192.168.212.103
192.168.212.104
192.168.212.105
192.168.212.106
192.168.212.107
192.168.212.108
192.168.212.109
192.168.212.110
192.168.212.111
192.168.212.112
192.168.212.114
192.168.212.115
192.168.212.116
192.168.212.117
192.168.212.118
192.168.212.119
192.168.212.120
192.168.212.121
192.168.212.122
192.168.212.123
192.168.212.124
192.168.212.125
192.168.212.126
192.168.212.127
192.168.212.128
192.168.212.129
192.168.212.130
192.168.212.131
192.168.212.132
192.168.212.133
192.168.212.134
192.168.212.135
192.168.212.136
192.168.212.137
192.168.212.138
192.168.212.139
192.168.212.140
192.168.212.141
192.168.212.142
192.168.212.143
192.168.212.145
192.168.212.146
192.168.212.147
192.168.212.148
192.168.212.149
192.168.212.150
192.168.212.151
192.168.212.152
192.168.212.160
192.168.212.161
192.168.212.162
192.168.212.168
192.168.212.169
192.168.212.170
192.168.212.171
192.168.212.172
192.168.212.182
192.168.212.185
192.168.212.186
192.168.212.187
192.168.212.188
192.168.212.189
192.168.212.191
192.168.212.193
192.168.212.194
192.168.212.195
192.168.212.196
192.168.212.197
192.168.212.198
192.168.212.199
192.168.212.201
192.168.212.202
192.168.212.209
192.168.212.210
192.168.212.211
192.168.212.212
192.168.212.224
192.168.212.228
192.168.212.229
192.168.212.231
192.168.212.232
192.168.212.233
192.168.212.234
192.168.212.235
192.168.212.236
192.168.212.237
192.168.212.238
192.168.212.239
192.168.212.240
192.168.212.241
192.168.212.242
192.168.212.244
192.168.212.245
192.168.212.246
192.168.212.247
192.168.212.248
192.168.212.249
192.168.212.250
192.168.212.251
192.168.212.252
192.168.212.254
192.168.212.255
192.168.212.50
192.168.212.51
192.168.212.52
192.168.212.53
192.168.212.54
192.168.212.55
192.168.212.56
192.168.212.57
192.168.212.59
192.168.212.60
192.168.212.61
192.168.212.62
192.168.212.63
192.168.212.64
192.168.212.65
192.168.212.66
192.168.212.67
192.168.212.68
192.168.212.69
192.168.212.70
192.168.212.71
192.168.212.72
192.168.212.73
192.168.212.74
192.168.212.75
192.168.212.76
192.168.212.77
192.168.212.78
192.168.212.79
192.168.212.80
192.168.212.81
192.168.212.82
192.168.212.83
192.168.212.84
192.168.212.85
192.168.212.86
192.168.212.87
192.168.212.88
192.168.212.89
192.168.212.90
192.168.212.91
192.168.212.92
192.168.212.93
192.168.212.94
192.168.212.95
192.168.212.96
192.168.212.97
192.168.212.98
192.168.212.99
192.168.213.1
192.168.213.15
192.168.213.16
192.168.213.17
192.168.213.18
192.168.213.20
192.168.213.21
192.168.213.22
192.168.213.23
192.168.213.24
192.168.213.25
192.168.213.26
192.168.213.27
192.168.213.28
192.168.213.29
192.168.213.31
192.168.213.35
192.168.213.36
192.168.213.37
192.168.213.4
192.168.213.5
192.168.213.6
192.168.213.7
192.168.213.8
192.168.215.249
192.168.215.250
192.168.215.252
192.168.215.253
192.168.215.254
