192.168.212.142	Gi1/1/0.1153
192.168.212.116	Gi1/1/0.1153
192.168.212.211	Gi1/1/0.1194	
192.168.212.171	Gi1/1/0.1195		
192.168.212.172	Gi1/1/0.1195	
192.168.212.212	Gi1/1/0.1194	
192.168.212.195	Gi1/1/0.1191
192.168.212.193	Gi1/1/0.1191
192.168.212.194	Gi1/1/0.1192	
192.168.212.197 Gi1/1/0.1192
192.168.212.196 Gi1/1/0.1192
192.168.212.97	Gi1/1/0.1117
192.168.212.66	Gi1/1/0.1103
192.168.212.86	Gi1/1/0.1120
192.168.212.91	Gi1/1/0.1121
192.168.212.90	Gi1/1/0.1115
192.168.212.87	Gi1/1/0.1116
192.168.212.76	Gi1/1/0.1119
192.168.212.70	Gi1/1/0.1114
192.168.212.69	Gi1/1/0.1123
192.168.212.233	Gi1/1/0.1123
192.168.212.71	Gi1/1/0.1124
192.168.212.63	Gi1/1/0.1122
192.168.212.64	Gi1/1/0.1102
192.168.212.77	Gi1/1/0.1127
192.168.212.65	Gi1/1/0.1125
192.168.212.78	Gi1/1/0.1128
192.168.212.74	Gi1/1/0.1126
192.168.212.88	Gi1/1/0.1109
192.168.212.84	Gi1/1/0.1110
192.168.212.83	Gi1/1/0.1111
192.168.212.61	Gi1/1/0.1108
192.168.212.131	Gi1/1/0.1100
192.168.212.72	Gi1/1/0.1101
192.168.212.60	Gi1/1/0.1100
192.168.212.100	Gi1/1/0.1112
192.168.212.101	Gi1/1/0.1113
192.168.212.81	Gi1/1/0.1105
192.168.212.85	Gi1/1/0.1106
192.168.212.67	Gi1/1/0.1104
192.168.212.112	Gi1/1/0.1129
192.168.212.59	Gi1/1/0.1129
192.168.212.68	Gi1/1/0.1130
192.168.212.107	Gi1/1/0.1130
192.168.212.106	Gi1/1/0.1132
192.168.212.92	Gi1/1/0.1132
192.168.212.94	Gi1/1/0.1131
192.168.212.105	Gi1/1/0.1131
192.168.212.55	Gi1/1/0.1135
192.168.212.56	Gi1/1/0.1136
192.168.212.239	Gi1/1/0.1136
192.168.212.57	Gi1/1/0.1137
192.168.212.53	Gi1/1/0.1134
192.168.212.54	Gi1/1/0.1133
192.168.212.111	Gi1/1/0.1141
192.168.212.235	Gi1/1/0.1141
192.168.212.51	Gi1/1/0.589
192.168.212.75	Gi1/1/0.1145
192.168.212.110	Gi1/1/0.1148
192.168.212.89	Gi1/1/0.1149
192.168.212.104	Gi1/1/0.1150
192.168.212.93	Gi1/1/0.1151
192.168.212.79	Gi1/1/0.1102
192.168.212.62	Gi1/1/0.1152
192.168.212.73	Gi1/1/0.1147
192.168.212.103	Gi1/1/0.1146
192.168.212.236	Gi1/1/0.1146
192.168.212.98	Gi1/1/0.1142
192.168.212.95	Gi1/1/0.1143
192.168.212.96	Gi1/1/0.1144
192.168.212.99	Gi1/1/0.1138
192.168.212.108	Gi1/1/0.1139
192.168.212.234	Gi1/1/0.1139
192.168.212.109	Gi1/1/0.1140
192.168.212.80	Gi1/1/0.1152
192.168.212.82	Gi1/1/0.1152
192.168.212.114	Gi1/1/0.1175	
192.168.212.117	Gi1/1/0.1175
192.168.212.126	Gi1/1/0.1175
192.168.212.127	Gi1/1/0.1175
192.168.212.115	Gi1/1/0.1163
192.168.212.120	Gi1/1/0.1155
192.168.212.136	Gi1/1/0.1167
192.168.212.129	Gi1/1/0.1161
192.168.212.119	Gi1/1/0.1154
192.168.212.138	Gi1/1/0.1169
192.168.212.139	Gi1/1/0.1170
192.168.212.130	Gi1/1/0.1162
192.168.212.140	Gi1/1/0.1171
192.168.212.137	Gi1/1/0.1168
192.168.212.135	Gi1/1/0.1166
192.168.212.128	Gi1/1/0.1160
192.168.212.118	Gi1/1/0.1153
192.168.212.123	Gi1/1/0.1157
192.168.212.151	Gi1/1/0.1174
192.168.212.251	Gi1/1/0.1173
192.168.212.143	Gi1/1/0.1175
192.168.212.152	Gi1/1/0.1175
192.168.212.237	Gi1/1/0.1175
192.168.212.146	Gi1/1/0.1153
192.168.212.147	Gi1/1/0.1153
192.168.212.149	Gi1/1/0.1175	
192.168.212.150	Gi1/1/0.1175
192.168.212.145	Gi1/1/0.1153
192.168.212.148	Gi1/1/0.1153
192.168.212.124	Gi1/1/0.1158
192.168.212.125	Gi1/1/0.1159
192.168.212.141	Gi1/1/0.1172
