192.168.228.50
192.168.228.51
192.168.228.52
192.168.228.53
192.168.228.54
192.168.228.55
192.168.228.56
192.168.228.57
192.168.228.58
192.168.228.59
192.168.228.60
192.168.228.61
192.168.228.62
192.168.228.63
192.168.228.64
192.168.228.65
192.168.228.66
192.168.228.67
192.168.228.68
192.168.228.69
192.168.228.70
192.168.228.71
192.168.228.72
192.168.228.73
192.168.228.74
192.168.228.75
192.168.228.76
192.168.228.77
192.168.228.78
192.168.228.79
192.168.228.80
192.168.228.81
192.168.228.82
192.168.228.83
192.168.228.84
192.168.228.85
192.168.228.86
192.168.228.87
192.168.228.88
192.168.228.89
192.168.228.90
192.168.228.91
192.168.228.92
192.168.228.93
192.168.228.94
192.168.228.95
192.168.228.96
192.168.229.50
192.168.229.51
192.168.229.52
192.168.229.53
192.168.229.54
192.168.229.55
192.168.229.56
192.168.229.57
192.168.229.58
192.168.229.59
192.168.229.60
192.168.229.61
192.168.229.62
192.168.229.63
192.168.229.64
192.168.229.65
192.168.229.66
192.168.229.67
192.168.229.68
192.168.229.69
192.168.229.70
192.168.229.71
192.168.229.72
192.168.229.73
192.168.229.74
192.168.229.75
192.168.229.76
192.168.229.77
192.168.229.78
192.168.229.79
192.168.229.80
192.168.229.81
192.168.229.82
192.168.229.83
192.168.229.84
192.168.229.85
192.168.229.86
192.168.229.87
192.168.229.88
192.168.229.89
192.168.229.90
192.168.229.91
192.168.229.92
192.168.229.93
192.168.229.94
192.168.229.95
192.168.229.96
192.168.229.97
192.168.229.98
192.168.229.99
192.168.229.100
192.168.229.101
192.168.229.102
192.168.229.103
192.168.229.104
192.168.229.105
192.168.229.106
192.168.229.107
192.168.229.108
192.168.229.109
192.168.229.110
192.168.229.111
192.168.229.112
192.168.229.113
192.168.229.114
192.168.229.115
192.168.229.116
192.168.229.117
192.168.229.118
192.168.229.119
192.168.229.120
192.168.229.121
192.168.229.122
192.168.229.123
192.168.229.124
192.168.229.125
192.168.229.126
192.168.229.127
192.168.229.128
192.168.229.129
192.168.229.130
192.168.229.131