192.168.212.2, DGS-3627G, 27, 2.84.B42, RTS, P1JN19C000013, 00-22-B0-17-C6-00
192.168.212.3, DGS-3627G, 27, 2.84.B35, Yamskaya_1_1, P1JN19C000014, 00-22-B0-17-CD-00
192.168.212.4, DGS-3627G, 27, 2.84.B42, Ugorskaya_6_1, P1JN19C000022, 00-22-B0-17-D0-00
192.168.212.5, DGS-3627G, 27, 2.84.B35, Ledovaya_7, P1JN1A3000050, 00-22-B0-19-5B-00
192.168.212.6, DGS-3627G, 27, 2.84.B35, Kirova_35, P1JN1A4000178, 00-22-B0-1D-78-00
192.168.212.7, DGS-3627G, 27, 2.84.B31, Gagarina130, P1JN1A4000177, 00-22-B0-1D-A7-00
192.168.212.8, DGS-3627G, 27, 2.84.B35, Yamskaya_1_2, P1JN1A4000075, 00-22-B0-1D-34-00
192.168.212.9, DGS-3627G, 27, 2.84.B42, Ugorskaya_6_2, P1JN1A4000076, 00-22-B0-1D-AD-00
192.168.212.10, DGS-3627G, 27, 3.00.B27, Ugorskaya_9, P1JN189001548, 00-21-91-BF-45-00
192.168.212.11, DGS-3627G, 27, 3.00.B14, Studencheskaya_5, P1JN2C5000096, BC-F6-85-26-3E-00
192.168.212.12, DGS-3627G, 27, 3.00.B24, Dunin-Gorkavich-5, P1JN2C5000095, BC-F6-85-26-36-00
192.168.212.13, DGS-3627G, 27, 3.00.B27, Stud_14, P1JN1A4000179, 00-22-B0-1D-79-00
192.168.212.14, DGS-3627G, 27, 3.00.B27, 77kvartal, P1JN1A4000171, 00-22-B0-1D-74-00
192.168.212.15, DGS-3627G, 27, 3.00.B27, , P1JN1A4000180, 00-22-B0-1D-70-00
192.168.212.16, DGS-3627G, 27, 2.84.B35, Engelsa_52, P1JN2B2000230, 34-08-04-A1-92-00
192.168.212.17, DGS-3627G, 27, 2.84.B35, Lenina_39, P1JN2B3000225, 34-08-04-A8-E4-00
192.168.212.18, DGS-3627G, 27, 3.00.B27, Pionerskaya_113, P1JN2B3000226, 34-08-04-A8-FC-00
192.168.212.19, DGS-3627G, 27, 2.84.B35, Engelsa_15a, P1JN2B3000251, 34-08-04-A9-08-00
192.168.212.20, DGS-3627G, 27, 2.84.B35, Mira_59, P1JN2B3000252, 34-08-04-A9-0E-00
192.168.212.21, DGS-3627G, 27, 2.84.B31, Chekalova, P1JN1A9000877, 00-22-B0-35-66-00
192.168.212.22, DGS-3627G, 27, 3.00.B27, Chehova_27a, P1JN1A9000876, 00-22-B0-35-82-00
192.168.212.23, DGS-3627G, 27, 3.00.B23, Olympiyskaya, P1JN2B8000040, 84-C9-B2-25-96-00
192.168.212.48, DES-3200-28/C1, 28, 4.36B012, Ryabinovaya-N13-Sl2, R3DZ1C8000291, 90-94-E4-24-3E-00
192.168.212.2, DGS-3627G, 27, 2.84.B42, RTS, P1JN19C000013, 00-22-B0-17-C6-00
192.168.212.3, DGS-3627G, 27, 2.84.B35, Yamskaya_1_1, P1JN19C000014, 00-22-B0-17-CD-00
192.168.212.4, DGS-3627G, 27, 2.84.B42, Ugorskaya_6_1, P1JN19C000022, 00-22-B0-17-D0-00
192.168.212.5, DGS-3627G, 27, 2.84.B35, Ledovaya_7, P1JN1A3000050, 00-22-B0-19-5B-00
192.168.212.6, DGS-3627G, 27, 2.84.B35, Kirova_35, P1JN1A4000178, 00-22-B0-1D-78-00
192.168.212.7, DGS-3627G, 27, 2.84.B31, Gagarina130, P1JN1A4000177, 00-22-B0-1D-A7-00
192.168.212.8, DGS-3627G, 27, 2.84.B35, Yamskaya_1_2, P1JN1A4000075, 00-22-B0-1D-34-00
192.168.212.9, DGS-3627G, 27, 2.84.B42, Ugorskaya_6_2, P1JN1A4000076, 00-22-B0-1D-AD-00
192.168.212.10, DGS-3627G, 27, 3.00.B27, Ugorskaya_9, P1JN189001548, 00-21-91-BF-45-00
192.168.212.11, DGS-3627G, 27, 3.00.B14, Studencheskaya_5, P1JN2C5000096, BC-F6-85-26-3E-00
192.168.212.12, DGS-3627G, 27, 3.00.B24, Dunin-Gorkavich-5, P1JN2C5000095, BC-F6-85-26-36-00
192.168.212.13, DGS-3627G, 27, 3.00.B27, Stud_14, P1JN1A4000179, 00-22-B0-1D-79-00
192.168.212.14, DGS-3627G, 27, 3.00.B27, 77kvartal, P1JN1A4000171, 00-22-B0-1D-74-00
192.168.212.15, DGS-3627G, 27, 3.00.B27, , P1JN1A4000180, 00-22-B0-1D-70-00
192.168.212.16, DGS-3627G, 27, 2.84.B35, Engelsa_52, P1JN2B2000230, 34-08-04-A1-92-00
192.168.212.17, DGS-3627G, 27, 2.84.B35, Lenina_39, P1JN2B3000225, 34-08-04-A8-E4-00
192.168.212.18, DGS-3627G, 27, 3.00.B27, Pionerskaya_113, P1JN2B3000226, 34-08-04-A8-FC-00
192.168.212.19, DGS-3627G, 27, 2.84.B35, Engelsa_15a, P1JN2B3000251, 34-08-04-A9-08-00
192.168.212.20, DGS-3627G, 27, 2.84.B35, Mira_59, P1JN2B3000252, 34-08-04-A9-0E-00
192.168.212.21, DGS-3627G, 27, 2.84.B31, Chekalova, P1JN1A9000877, 00-22-B0-35-66-00
192.168.212.22, DGS-3627G, 27, 3.00.B27, Chehova_27a, P1JN1A9000876, 00-22-B0-35-82-00
192.168.212.23, DGS-3627G, 27, 3.00.B23, Olympiyskaya, P1JN2B8000040, 84-C9-B2-25-96-00
192.168.212.48, DES-3200-28/C1, 28, 4.36B012, Ryabinovaya-N13-Sl2, R3DZ1C8000291, 90-94-E4-24-3E-00
