IP,Model,,Name,SN,MAC
192.168.212.2, DGS-3627G, 2.84.B23, RTS, P1JN19C000013, 00-22-B0-17-C6-00
192.168.212.3, DGS-3627G, 2.84.B17, Yamskaya, P1JN19C000014, 00-22-B0-17-CD-00
192.168.212.4, DGS-3627G, 2.84.B31, Ugorskaya_6, P1JN19C000022, 00-22-B0-17-D0-00
192.168.212.5, DGS-3627G, 2.84.B12, Ledovaya_7, P1JN1A3000050, 00-22-B0-19-5B-00
192.168.212.6, DGS-3627G, 2.84.B12, Kirova_35, P1JN1A4000178, 00-22-B0-1D-78-00
192.168.212.7, DGS-3627G, 2.84.B31, Gagarina130, P1JN1A4000177, 00-22-B0-1D-A7-00
192.168.212.8, DGS-3627G, 2.84.B12, Yamskaya#2, P1JN1A4000075, 00-22-B0-1D-34-00
192.168.212.13, DGS-3627G, 2.84.B23, Stud_14, P1JN1A4000179, 00-22-B0-1D-79-00
192.168.212.14, DGS-3627G, 2.84.B23, 77kvartal, P1JN1A4000171, 00-22-B0-1D-74-00
192.168.212.16, DGS-3627G, 2.84.B23, Engelsa_52, P1JN2B2000230, 34-08-04-A1-92-00
192.168.212.17, DGS-3627G, 2.84.B23, Lenina_39, P1JN2B3000225, 34-08-04-A8-E4-00
192.168.212.18, DGS-3627G, 2.84.B18, Pionerskaya_113, P1JN2B3000226, 34-08-04-A8-FC-00
192.168.212.19, DGS-3627G, 2.84.B25, Engelsa_15a, P1JN2B3000251, 34-08-04-A9-08-00
192.168.212.20, DGS-3627G, 2.80.B31, Mira_59, P1JN2B3000252, 34-08-04-A9-0E-00
192.168.212.21, DGS-3627G, 2.84.B31, Chekalova, P1JN1A9000877, 00-22-B0-35-66-00
192.168.212.22, DGS-3627G, 2.84.B25, Chehova_27a, P1JN1A9000876, 00-22-B0-35-82-00
