, , , , , , 
192.168.212.2, , , , , , 
192.168.212.3, , , , , , 
192.168.212.4, , , , , , 
192.168.212.5, , , , , , 
192.168.212.6, , , , , , 
192.168.212.7, , , , , , 
192.168.212.8, , , , , , 
192.168.212.9, , , , , , 
192.168.212.10, , , , , , 
192.168.212.11, , , , , , 
192.168.212.13, , , , , , 
192.168.212.14, , , , , , 
192.168.212.16, , , , , , 
192.168.212.17, , , , , , 
192.168.212.18, , , , , , 
192.168.212.19, , , , , , 
192.168.212.20, , , , , , 
192.168.212.21, , , , , , 
192.168.212.22, , , , , , 
192.168.212.23, , , , , , 
addresses, , , , , , 
