192.168.212.50, RTS, 1122
192.168.212.52, Vistavka, 1155
192.168.212.53, Ledovaya_7, 1131
192.168.212.54, Yamskaya_20, 1133
192.168.212.55, Ledovaya_3, 1135
192.168.212.56, Ledovaya_5, 1136
192.168.212.57, Ledovaya_9, 1137
192.168.212.59, Yamskaya, 589
192.168.212.60, Zelenodolskaya, 1100
192.168.212.62, Gagarina_130_5, 1152
192.168.212.64, Zelenodolskaya, 1102
192.168.212.68, Yamskaya, 1130
192.168.212.72, Zelenodolskaya, 1101
192.168.212.73, Lermontova_19a_1, 1147
192.168.212.75, Ryab_13b, 1145
192.168.212.82, Kirova_39_2, 589
192.168.212.50, RTS, 1122
192.168.212.51, Office, 589
590
192.168.212.52, Vistavka, 1155
192.168.212.53, Ledovaya_7, 1131
192.168.212.54, Yamskaya_20, 1133
192.168.212.55, Ledovaya_3, 1135
192.168.212.56, Ledovaya_5, 1136
192.168.212.57, Ledovaya_9, 1137
192.168.212.59, Yamskaya, 589
192.168.212.60, Zelenodolskaya, 1100
192.168.212.62, Gagarina_130_5, 1152
192.168.212.64, Zelenodolskaya, 1102
192.168.212.68, Yamskaya, 1130
192.168.212.72, Zelenodolskaya, 1101
192.168.212.73, Lermontova_19a_1, 1147
192.168.212.75, Ryab_13b, 1145
192.168.212.82, Kirova_39_2, 589
192.168.212.89, Ugorskaya_6_1, 1149
192.168.212.93, Gagar_65_3, 1151
192.168.212.94, Yamskaya_12_4, 590
192.168.212.95, Ryabin_13_1, 1143
192.168.212.96, Ryabin_13a_3, 1144
192.168.212.98, Ryabin_11_2, 1142
192.168.212.100, Yamskaya_3, 1112
192.168.212.101, Yamskaya_5, 1113
192.168.212.102, Gagarina_132_2, 1102
192.168.212.104, Ugorskaya_6_3, 589
1150
192.168.212.105, Yamskaya12_3, 1131
192.168.212.108, Ryabin_9a_1, 1139
192.168.212.109, Ryabin_9b_1, 1140
192.168.212.110, Posad_16, 1148
192.168.212.111, Ryabinovaya_11a, 1141
192.168.212.112, Yamskaya_12_4_3, 1131
192.168.212.115, Studencheskaja_14, 1163
192.168.212.118, Studencheskaja_18, 1153
192.168.212.119, Studencheskaja_15, 1154
192.168.212.120, Svetlaja_43, 1155
192.168.212.121, Svetlaja_25, 1156
192.168.212.123, Svetlaja_23, 1157
192.168.212.124, Svetlaya_21, 1158
192.168.212.125, Svetlaja_19, 1159
192.168.212.128, Studencheskaja_18_1, 1160
192.168.212.129, Studencheskaja_15_1, 1161
192.168.212.130, Studencheskaja_20, 1162
192.168.212.132, Studencheskaja_14_1, 1163
192.168.212.133, Svetlaja_39, 1164
192.168.212.134, Svetlaja_41, 1165
192.168.212.135, Studencheskaja_16, 1166
192.168.212.136, Svetlaja_37, 1167
192.168.212.137, Studencheskaja_16_1, 1168
192.168.212.138, Svetlaja_69, 1169
192.168.212.139, Svetlaja_69_1, 1170
192.168.212.140, Studencheskaja_20_1, 1171
192.168.212.141, Svetlaja_27, 1172
192.168.212.143, Eleni_1, 1175
192.168.212.149, Dzer_25_2, 1175
192.168.212.150, Dzer_25_4, 1175
192.168.212.151, Svetlaya_67_1, 1174
192.168.212.152, Eleni_1, 1175
192.168.212.168, Sirina_68b_6, 1196
192.168.212.169, Sirina_68b_2, 1196
192.168.212.170, Sirina_68b_4, 1196
192.168.212.171, Sirina_76_1, 1195
192.168.212.185, Engelsa_15a_1, 1206
192.168.212.186, Engelsa, 1209
192.168.212.188, Pionersakaya_25, 1210
192.168.212.189, Pionersakaya_25, 1211
192.168.212.191, KMarksa_28_2, 1198
192.168.212.194, Lenina_40_5, 1192
192.168.212.195, , 1191
192.168.212.196, Lenina_40_2, 1192
192.168.212.197, Lenina_40_7, 1192
192.168.212.198, Lenina_39_5, 1205
192.168.212.199, Lenina_39_2, 1205
192.168.212.201, Pionerskaya_29_2, 1204
192.168.212.202, Pionerskaya_29_5, 1204
192.168.212.209, Engelsa_56_2, 1197
192.168.212.210, Engelsa_56_3, 1197
192.168.212.211, Engelsa_54, 1194
192.168.212.212, Engelsa_52, 1193
192.168.212.232, Engilsa_3, 1152
192.168.212.233, Obezdnaya_6_3_1, 1123
192.168.212.234, Ryabin_9a, 1139
192.168.212.235, Ryabin_11a, 1141
192.168.212.236, Ryabin_20, 1146
192.168.212.237, Eleni_1_2, 1175
192.168.212.238, Svetlaya_67_2, 1174
192.168.212.239, Ledovaya_5_2, 1136
192.168.212.241, Dev-192.168.212.241, 1127
192.168.212.245, Studencheskaja_15_1, 1161
192.168.212.248, Obyezdnaya_10_8, 1111
192.168.212.249, Ledovaya_19, 1103
192.168.212.250, Ledovaya_19, 1104
192.168.212.251, Svetlaya_67, 1173
192.168.213.1, Obskaya_29, 1201
192.168.213.5, , 589
192.168.213.6, Engelsa_3_16, 1212
192.168.213.7, , 589
192.168.213.15, Engelsa_3_5, 1202
192.168.213.21, Engelsa_3_14, 1212
192.168.213.24, Territor_pervyh_2etazh, 1207
192.168.213.25, Terr_pervyh_cherdak_1, 1207
192.168.213.26, Terr_pervyh_cherdak_2, 1207
192.168.213.27, Obyezdnaya_8, 1128
192.168.213.28, Ryabinovaya_9, 1138
192.168.213.31, Studencheskaya_15b, 1213
192.168.213.35, Stroitelei_90a, 1213
