192.168.224.49
192.168.224.50
192.168.224.51
192.168.224.52
192.168.224.53
192.168.224.54
192.168.224.55
192.168.224.56
192.168.224.57
192.168.224.58
192.168.224.59
192.168.224.60
192.168.224.61
192.168.224.62
192.168.224.63
192.168.224.64
192.168.224.65
192.168.224.66
192.168.224.67
192.168.224.68
192.168.224.69
192.168.224.70
192.168.224.71
192.168.224.72
192.168.224.73
192.168.224.74
192.168.224.75
192.168.224.76
192.168.224.77
192.168.224.78
192.168.224.79
192.168.224.81
192.168.224.82
192.168.224.83
192.168.224.84
192.168.224.85
192.168.224.86
192.168.224.87
192.168.224.88
192.168.224.89
192.168.224.93
192.168.224.94
192.168.224.95
192.168.224.96
192.168.224.97
192.168.224.98
192.168.224.99
192.168.224.101
192.168.224.102
192.168.224.103
192.168.224.104
192.168.224.105
192.168.224.106
192.168.224.107
192.168.224.108
192.168.224.109
192.168.224.110
192.168.224.111
192.168.224.112
192.168.224.113
192.168.224.114
192.168.224.115
192.168.224.116
192.168.224.117
192.168.224.118
192.168.224.119
192.168.224.120
192.168.224.121
192.168.224.122
192.168.224.123
192.168.224.124
192.168.224.125
192.168.224.126
192.168.224.127
192.168.224.128
192.168.224.129
192.168.224.130
192.168.224.131
192.168.224.134
192.168.224.135
192.168.224.136
192.168.224.137
192.168.224.138
192.168.224.139
192.168.224.141
192.168.224.142
192.168.224.143
192.168.224.144
192.168.224.145
192.168.224.147
192.168.224.148
192.168.224.150
192.168.224.152
192.168.224.153
192.168.224.154
192.168.224.155
192.168.224.156
192.168.224.160
192.168.224.164
192.168.224.171
192.168.224.177
192.168.224.178
192.168.224.183
192.168.224.184
192.168.224.185
192.168.224.186
192.168.224.187
rate-limit input 4096000 128000 128000 conform-action transmit exceed-action drop
rate-limit output 8192000 128000 128000 conform-action transmit exceed-action drop
