192.168.212.254
192.168.212.255
192.168.213.1
192.168.213.2
192.168.213.14
192.168.212.190
192.168.212.183
192.168.212.184
192.168.212.201
192.168.212.202
192.168.212.193
192.168.212.195
192.168.212.196
192.168.212.194
192.168.212.197
192.168.212.198
192.168.212.17
192.168.212.199
192.168.212.208
192.168.213.4
192.168.213.6
192.168.213.8
192.168.213.15
192.168.213.20
192.168.213.21
192.168.213.22
192.168.212.220
192.168.213.11
192.168.212.191
192.168.212.200
192.168.213.12
192.168.213.13
192.168.213.18
192.168.212.204
192.168.212.180
192.168.212.225
192.168.213.16
192.168.212.21
192.168.213.17
192.168.212.174
192.168.212.175
192.168.212.231
192.168.212.162
192.168.212.228
192.168.212.161
192.168.212.182
192.168.212.229
192.168.213.19
192.168.212.215
192.168.212.156
192.168.212.163
192.168.212.164
192.168.212.176
192.168.212.177
192.168.212.223
192.168.212.20
192.168.212.179
192.168.212.207
192.168.212.221
192.168.212.160
192.168.212.206
192.168.212.18
192.168.212.227
192.168.212.205
192.168.212.212
192.168.212.16
192.168.212.211
192.168.212.209
192.168.212.210
192.168.212.186
192.168.212.168
192.168.212.169
192.168.212.170
192.168.212.171
192.168.212.172
192.168.213.2
192.168.213.7
192.168.213.5
192.168.212.187
192.168.212.224
192.168.212.188
192.168.212.189
192.168.213.9
192.168.213.10
192.168.212.181
192.168.212.230
192.168.212.185
192.168.212.19
192.168.212.192
192.168.212.203
192.168.212.222
192.168.212.219
192.168.212.218
192.168.212.159
192.168.212.165
192.168.212.166
192.168.212.155
192.168.212.153
192.168.212.153
192.168.212.158
192.168.212.178
192.168.212.232
192.168.212.226
192.168.212.22