192.168.212.100 1112
192.168.212.101 1113
192.168.212.103 1146
192.168.212.104 1150
192.168.212.105 1131
192.168.212.106 1132
192.168.212.107 1130
192.168.212.108 1139
192.168.212.109 1140
192.168.212.110 1148
192.168.212.111 1141
192.168.212.112 1129
192.168.212.114 1175
192.168.212.115 1163
192.168.212.116 1153
192.168.212.117 1175
192.168.212.118 1153
192.168.212.119 1154
192.168.212.120 1155
192.168.212.123 1157
192.168.212.124 1158
192.168.212.125 1159
192.168.212.126 1175
192.168.212.127 1175
192.168.212.128 1160
192.168.212.129 1161
192.168.212.130 1162
192.168.212.131 1100
192.168.212.132 1163
192.168.212.135 1166
192.168.212.136 1167
192.168.212.137 1168
192.168.212.138 1169
192.168.212.139 1170
192.168.212.140 1171
192.168.212.141 1172
192.168.212.142 1153
192.168.212.143 1175
192.168.212.145 1153
192.168.212.146 1153
192.168.212.147 1153
192.168.212.148 1153
192.168.212.149 1175
192.168.212.150 1175
192.168.212.151 1174
192.168.212.152 1175
192.168.212.171 1195
192.168.212.172 1195
192.168.212.193 1191
192.168.212.194 1192
192.168.212.195 1191
192.168.212.196 1192
192.168.212.197 1192
192.168.212.211 1194
192.168.212.212 1194
192.168.212.233 1123
192.168.212.234 1139
192.168.212.235 1141
192.168.212.236 1146
192.168.212.237 1175
192.168.212.239 1136
192.168.212.251 1173
192.168.212.51 589
192.168.212.53 1134
192.168.212.54 1133
192.168.212.55 1135
192.168.212.56 1136
192.168.212.57 1137
192.168.212.59 1129
192.168.212.60 1100
192.168.212.61 1108
192.168.212.62 1152
192.168.212.63 1122
192.168.212.64 1102
192.168.212.65 1125
192.168.212.66 1103
192.168.212.67 1104
192.168.212.68 1130
192.168.212.69 1123
192.168.212.70 1114
192.168.212.71 1124
192.168.212.72 1101
192.168.212.73 1147
192.168.212.74 1126
192.168.212.75 1145
192.168.212.76 1119
192.168.212.77 1127
192.168.212.78 1128
192.168.212.79 1102
192.168.212.80 1152
192.168.212.81 1105
192.168.212.82 1152
192.168.212.83 1111
192.168.212.84 1110
192.168.212.85 1106
192.168.212.86 1120
192.168.212.87 1116
192.168.212.88 1109
192.168.212.89 1149
192.168.212.90 1115
192.168.212.91 1121
192.168.212.92 1132
192.168.212.93 1151
192.168.212.94 1131
192.168.212.95 1143
192.168.212.96 1144
192.168.212.97 1117
192.168.212.98 1142
192.168.212.99 1138
